Updates to ragg and systemfonts
…
shape
#> $shape
#> # A tibble: 299 x 7
#>    glyph index metric_id string_id x_offset y_offset x_midpoint
#>    <chr> <int>     <int>     <int>    <dbl>    <dbl>      <dbl>
#>  1 "T"      55         1         1   -133.      47.7       4.2 
#>  2 "h"      75         1         1   -125.      47.7       3.96
#>  3 "i"      76         1         1   -117.      47.7       1.92
#>  4 "s"      86         1         1   -113.      47.7       2.76
#>  5 " "       3         1         1   -108.      47.7       1.92
#>  6 "i"      76         1         1   -104.      47.7       1.92
#>  7 "s"      86         1         1    -99.8     47.7       2.76
#>  8 " "       3         1         1    -94.3     47.7       1.92
#>  9 "a"      68         1         1    -90.5     47.7       3.48
#> 10 "n"      81         1         1    -83.5     47.7       3.96
#> # … with 289 more rows
…
