embed 0.1.0
…
The tidy() method can be used to show the estimated breaks:

breaks <- 
  tidy(ames_rec, id = "xgb") %>% 
  pull(values)

breaks

## [1] -93.68667 -93.67038 -93.65519 -93.64602 -93.63570 -93.62575 -93.61737

The consequence of using step_discretize_xgb() is that the numeric predictor Longitude is converted to a factor with 8 levels:

bake(ames_rec, ames_test, Longitude)

## # A tibble: 731 x 1
##    Longitude      
##    <fct>          
##  1 [-93.63,-93.62)
##  2 [-93.63,-93.62)
##  3 [-93.65,-93.64)
##  4 [-93.64,-93.63)
##  5 [-93.64,-93.63)
##  6 [-93.64,-93.63)
##  7 [-93.64,-93.63)
##  8 [-93.66,-93.65)
##  9 [-93.66,-93.65)
## 10 [-93.66,-93.65)
## # … with 721 more rows
…
There is no actual estimation used so far. When generating the values, the hashing function is used to create the indicators:

all_nhood <- 
  ames %>% 
  select(Neighborhood) %>% 
  distinct()
hashed <- bake(hash_rec, all_nhood, starts_with("Neighborhood"))
hashed

## # A tibble: 28 x 11
##    Neighborhood Neighborhood_ha… Neighborhood_ha… Neighborhood_ha…
##    <fct>                   <dbl>            <dbl>            <dbl>
##  1 North_Ames                  0                0                0
##  2 Gilbert                     0                0                0
##  3 Stone_Brook                 0                0                0
##  4 Northwest_A…                1                0                0
##  5 Somerset                    0                0                1
##  6 Briardale                   0                0                0
##  7 Northpark_V…                0                0                0
##  8 Northridge_…                0                0                0
##  9 Bloomington…                0                0                0
## 10 Northridge                  0                0                0
## # … with 18 more rows, and 7 more variables: Neighborhood_hash_04 <dbl>,
## #   Neighborhood_hash_05 <dbl>, Neighborhood_hash_06 <dbl>,
## #   Neighborhood_hash_07 <dbl>, Neighborhood_hash_08 <dbl>,
## #   Neighborhood_hash_09 <dbl>, Neighborhood_hash_10 <dbl>
…
