workflows 0.2.0
…
model <- fit(wf, mtcars)
mold <- pull_workflow_mold(model)

mold$predictors

#> # A tibble: 32 x 2
#>      cyl  disp
#>    <dbl> <dbl>
#>  1     6  160 
#>  2     6  160 
#>  3     4  108 
#>  4     6  258 
#>  5     8  360 
#>  6     6  225 
#>  7     8  360 
#>  8     4  147.
#>  9     4  141.
#> 10     6  168.
#> # … with 22 more rows

mold$outcomes

#> # A tibble: 32 x 1
#>      mpg
#>    <dbl>
#>  1  21  
#>  2  21  
#>  3  22.8
#>  4  21.4
#>  5  18.7
#>  6  18.1
#>  7  14.3
#>  8  24.4
#>  9  22.8
#> 10  19.2
#> # … with 22 more rows
…
