dplyr 0.8.0
…
Grouping has always been at the center of what dplyr is about, this release expands on the
existing group_by() with a set of experimental functions with a variety of
perspectives on the notion of grouping.
We believe they offer new unique possibilities, but we welcome community feedback and use cases
before we put a 💍 on them. Let’s illustrate them with a subset from the
well-known gapminder data.

oceania <- gapminder::gapminder %>% 
  filter(continent == "Oceania") %>% 
  mutate(yr1952 = year - 1952) %>% 
  select(-continent) %>% 
  group_by(country)
oceania
#> # A tibble: 24 x 6
#> # Groups:   country [2]
#>    country    year lifeExp      pop gdpPercap yr1952
#>    <fct>     <int>   <dbl>    <int>     <dbl>  <dbl>
#>  1 Australia  1952    69.1  8691212    10040.      0
#>  2 Australia  1957    70.3  9712569    10950.      5
#>  3 Australia  1962    70.9 10794968    12217.     10
#>  4 Australia  1967    71.1 11872264    14526.     15
#>  5 Australia  1972    71.9 13177000    16789.     20
#>  6 Australia  1977    73.5 14074100    18334.     25
#>  7 Australia  1982    74.7 15184200    19477.     30
#>  8 Australia  1987    76.3 16257249    21889.     35
#>  9 Australia  1992    77.6 17481977    23425.     40
#> 10 Australia  1997    78.8 18565243    26998.     45
#> # … with 14 more rows
…
