Improved sparsity support in tidymodels
…
rec_spec <- recipe(permeability ~ ., data = permeability_sparse) |>
  step_zv(all_predictors())

mod_spec <- boost_tree("regression", "xgboost")

wf_spec <- workflow(rec_spec, mod_spec)

Model training has the usual syntax:

wf_fit <- fit(wf_spec, permeability_sparse)

as does prediction:

predict(wf_fit, permeability_sparse)
#> # A tibble: 165 × 1
#>     .pred
#>     <dbl>
#>  1 10.5  
#>  2  1.50 
#>  3 13.1  
#>  4  1.10 
#>  5  1.25 
#>  6  0.738
#>  7 29.3  
#>  8  2.44 
#>  9 36.3  
#> 10  4.31 
#> # ℹ 155 more rows
…
mod_spec <- boost_tree("regression", "xgboost")

wf_spec <- workflow(rec_spec, mod_spec)

When we go to fit it now, it takes around 125ms and allocates 37.2MB. Compared to before these changes it would take around 335ms and allocate 67.5MB.

wf_fit <- fit(wf_spec, ames)

We see similar speedups when we predictor with around 20ms and 25.2MB now, compared to around 60ms and 55.6MB before.

predict(wf_fit, ames)
#> # A tibble: 2,930 × 1
#>      .pred
#>      <dbl>
#>  1 208649.
#>  2 115339.
#>  3 148634.
#>  4 239770.
#>  5 190082.
#>  6 184604.
#>  7 208572.
#>  8 177403 
#>  9 261000.
#> 10 198604.
#> # ℹ 2,920 more rows
…
