testthat 2.3.0
…
library(tibble)

test_that("tibbles print usefully", {
  verify_output(test_path("test-print-dataframe.txt"), {
    df1 <- tibble(x = 1:1e6)
    print(df1)
  })
})

That test yields a test-print-dataframe.txt containing this output:

> df1 <- tibble(x = 1:1e+06)
> print(df1)
# A tibble: 1,000,000 x 1
       x
   <int>
 1     1
 2     2
 3     3
 4     4
 5     5
 6     6
 7     7
 8     8
 9     9
10    10
# ... with 999,990 more rows
…
    "# wide tibbles"
    "not yet written"
  })
})

long tibbles
============

> df1 <- tibble(x = 1:1e+06)
> print(df1)
# A tibble: 1,000,000 x 1
       x
   <int>
 1     1
 2     2
 3     3
 4     4
 5     5
 6     6
 7     7
 8     8
 9     9
10    10
# ... with 999,990 more rows
…
