bonsai 0.3.0
…
This blog post will demonstrate a modeling workflow where the benefits of using oblique random forests shine through.
You can see a full list of changes in the
release notes.

library(tidymodels)
library(bonsai)
library(plsmod)
library(corrr)

The meats data

The modeldata package, loaded automatically with the tidymodels meta-package, includes several example datasets to demonstrate modeling problems. We’ll make use of a dataset called meats in this post. Each row is a measurement of a sample of finely chopped meat.

meats
#> # A tibble: 215 × 103
#>    x_001 x_002 x_003 x_004 x_005 x_006 x_007 x_008 x_009 x_010 x_011 x_012 x_013
#>    <dbl> <dbl> <dbl> <dbl> <dbl> <dbl> <dbl> <dbl> <dbl> <dbl> <dbl> <dbl> <dbl>
#>  1  2.62  2.62  2.62  2.62  2.62  2.62  2.62  2.62  2.63  2.63  2.63  2.63  2.64
#>  2  2.83  2.84  2.84  2.85  2.85  2.86  2.86  2.87  2.87  2.88  2.88  2.89  2.90
#>  3  2.58  2.58  2.59  2.59  2.59  2.59  2.59  2.60  2.60  2.60  2.60  2.61  2.61
#>  4  2.82  2.82  2.83  2.83  2.83  2.83  2.83  2.84  2.84  2.84  2.84  2.85  2.85
#>  5  2.79  2.79  2.79  2.79  2.80  2.80  2.80  2.80  2.81  2.81  2.81  2.82  2.82
#>  6  3.01  3.02  3.02  3.03  3.03  3.04  3.04  3.05  3.06  3.06  3.07  3.08  3.09
#>  7  2.99  2.99  3.00  3.01  3.01  3.02  3.02  3.03  3.04  3.04  3.05  3.06  3.07
#>  8  2.53  2.53  2.53  2.53  2.53  2.53  2.53  2.53  2.54  2.54  2.54  2.54  2.54
#>  9  3.27  3.28  3.29  3.29  3.30  3.31  3.31  3.32  3.33  3.33  3.34  3.35  3.36
#> 10  3.40  3.41  3.41  3.42  3.43  3.43  3.44  3.45  3.46  3.47  3.48  3.48  3.49
#> # ℹ 205 more rows
#> # ℹ 90 more variables: x_014 <dbl>, x_015 <dbl>, x_016 <dbl>, x_017 <dbl>,
#> #   x_018 <dbl>, x_019 <dbl>, x_020 <dbl>, x_021 <dbl>, x_022 <dbl>,
#> #   x_023 <dbl>, x_024 <dbl>, x_025 <dbl>, x_026 <dbl>, x_027 <dbl>,
#> #   x_028 <dbl>, x_029 <dbl>, x_030 <dbl>, x_031 <dbl>, x_032 <dbl>,
#> #   x_033 <dbl>, x_034 <dbl>, x_035 <dbl>, x_036 <dbl>, x_037 <dbl>,
#> #   x_038 <dbl>, x_039 <dbl>, x_040 <dbl>, x_041 <dbl>, x_042 <dbl>, …
…
