…
The `result` column contains the results of `tune_grid()` (or `fit_resamples()` for the "plain" models). 

There are a few convenience functions for ranking the results. To get the rankings of the models (and their tuning parameter sub-models) as a data frame: 


```r
rank_results(meat_wflow_set) %>% 
  # To fit on the page:
  select(-.metric, -std_err, -n) %>% 
  relocate(rank, mean)
```

```
## # A tibble: 102 x 6
##     rank  mean wflow_id   .config              preprocessor model     
##    <int> <dbl> <chr>      <chr>                <chr>        <chr>     
##  1     1  2.48 plain_mars Preprocessor1_Model1 formula      mars      
##  2     2  2.68 pls_mars   Preprocessor3_Model1 recipe       mars      
##  3     3  3.00 plain_lm   Preprocessor1_Model1 formula      linear_reg
##  4     4  3.07 ica_mars   Preprocessor3_Model1 recipe       mars      
##  5     5  3.19 pca_mars   Preprocessor3_Model1 recipe       mars      
##  6     6  3.31 pls_lm     Preprocessor3_Model1 recipe       linear_reg
##  7     7  3.49 ica_lm     Preprocessor3_Model1 recipe       linear_reg
##  8     8  3.49 pca_lm     Preprocessor3_Model1 recipe       linear_reg
##  9     9  3.72 pls_mars   Preprocessor1_Model1 recipe       mars      
## 10    10  3.89 pls_lm     Preprocessor1_Model1 recipe       linear_reg
## # … with 92 more rows
```
…
