rsample 1.3.0
…
library(dplyr)
#> 
#> Attaching package: 'dplyr'
#> The following objects are masked from 'package:stats':
#> 
#>     filter, lag
#> The following objects are masked from 'package:base':
#> 
#>     intersect, setdiff, setequal, union
data(deliveries, package = "modeldata")

deliveries
#> # A tibble: 10,012 × 31
#>    time_to_delivery  hour day   distance item_01 item_02 item_03 item_04 item_05
#>               <dbl> <dbl> <fct>    <dbl>   <int>   <int>   <int>   <int>   <int>
#>  1             16.1  11.9 Thu       3.15       0       0       2       0       0
#>  2             22.9  19.2 Tue       3.69       0       0       0       0       0
#>  3             30.3  18.4 Fri       2.06       0       0       0       0       1
#>  4             33.4  15.8 Thu       5.97       0       0       0       0       0
#>  5             27.2  19.6 Fri       2.52       0       0       0       1       0
#>  6             19.6  13.0 Sat       3.35       1       0       0       1       0
#>  7             22.1  15.5 Sun       2.46       0       0       1       1       0
#>  8             26.6  17.0 Thu       2.21       0       0       1       0       0
#>  9             30.8  16.7 Fri       2.62       0       0       0       0       0
#> 10             17.4  11.9 Sun       2.75       0       2       1       0       0
#> # ℹ 10,002 more rows
#> # ℹ 22 more variables: item_06 <int>, item_07 <int>, item_08 <int>,
#> #   item_09 <int>, item_10 <int>, item_11 <int>, item_12 <int>, item_13 <int>,
#> #   item_14 <int>, item_15 <int>, item_16 <int>, item_17 <int>, item_18 <int>,
#> #   item_19 <int>, item_20 <int>, item_21 <int>, item_22 <int>, item_23 <int>,
#> #   item_24 <int>, item_25 <int>, item_26 <int>, item_27 <int>
…
We can calculate that on our entire dataset.

relative_increase(item_data)
#> # A tibble: 54 × 3
#>    term    .weekend estimate
#>    <chr>   <chr>       <dbl>
#>  1 item_01 weekday      1.07
#>  2 item_02 weekday      1.02
#>  3 item_03 weekday      1.02
#>  4 item_04 weekday      1.00
#>  5 item_05 weekday      1.00
#>  6 item_06 weekday      1.01
#>  7 item_07 weekday      1.03
#>  8 item_08 weekday      1.01
#>  9 item_09 weekday      1.01
#> 10 item_10 weekday      1.06
#> # ℹ 44 more rows
…
set.seed(1)
item_bootstrap <- bootstraps(item_data, times = 1000)

item_stats <-
  item_bootstrap %>%
  mutate(stats = purrr::map(splits, ~ analysis(.x) %>% relative_increase()))

Now we have everything we need to calculate the confidence intervals, stashed into the tibbles in the stats column: an estimate, a term (the primary grouping variable), and our additional grouping variable .weekend, starting with a dot. What’s left to do is call one of the int_*() functions and specify which column contains the statistics. Here, we’ll calculate percentile intervals with
int_pctl().

item_ci <- int_pctl(item_stats, statistics = stats, alpha = 0.1)
item_ci
#> # A tibble: 54 × 7
#>    term    .weekend .lower .estimate .upper .alpha .method   
#>    <chr>   <chr>     <dbl>     <dbl>  <dbl>  <dbl> <chr>     
#>  1 item_01 weekday   1.05      1.07    1.09    0.1 percentile
#>  2 item_01 weekend   1.04      1.07    1.10    0.1 percentile
#>  3 item_02 weekday   1.00      1.02    1.03    0.1 percentile
#>  4 item_02 weekend   0.996     1.01    1.03    0.1 percentile
#>  5 item_03 weekday   1.01      1.02    1.04    0.1 percentile
#>  6 item_03 weekend   0.970     0.990   1.01    0.1 percentile
#>  7 item_04 weekday   0.989     1.00    1.02    0.1 percentile
#>  8 item_04 weekend   0.998     1.02    1.03    0.1 percentile
#>  9 item_05 weekday   0.987     1.00    1.02    0.1 percentile
#> 10 item_05 weekend   0.982     1.00    1.03    0.1 percentile
#> # ℹ 44 more rows
…
