Updates for recipes extension packages
…
The method that was implemented in embed now has
standalone functions to apply these algorithms without having to create a recipe.

smotenc(hpc_data, "class", over_ratio = 0.5)
#> # A tibble: 5,768 × 8
#>    protocol compounds input_fields iterations num_pending  hour day   class
#>    <fct>        <dbl>        <dbl>      <dbl>       <dbl> <dbl> <fct> <fct>
#>  1 E              997          137         20           0  14   Tue   F    
#>  2 E               97          103         20           0  13.8 Tue   VF   
#>  3 E              101           75         10           0  13.8 Thu   VF   
#>  4 E               93           76         20           0  10.1 Fri   VF   
#>  5 E              100           82         20           0  10.4 Fri   VF   
#>  6 E              100           82         20           0  16.5 Wed   VF   
#>  7 E              105           88         20           0  16.4 Fri   VF   
#>  8 E               98           95         20           0  16.7 Fri   VF   
#>  9 E              101           91         20           0  16.2 Fri   VF   
#> 10 E               95           92         20           0  10.8 Wed   VF   
#> # … with 5,758 more rows
…
