Writing performant code with tidy tools
…
library(vctrs)

If you use dplyr and tidyr like I do, turns out you’re also a vctrs user! dplyr and tidyr rely on vctrs to handle all sorts of elementary operations behind the scenes, and the package is a core part of a tidy developer’s toolkit. Taken together with some functions from the tibble package, these tools provide a super efficient, albeit bare-bones, alternative interface to common data manipulation tasks like
filter()ing and
select()ing.
Rewriting tidy code

For every performance improvement I make by rewriting dplyr and tidyr code to instead use vctrs and tibble, I make probably two or three simpler optimizations.
Tool-agnostic practices such as reducing duplicated computations, implementing early returns where possible, and using vectorized implementations will likely take you far when optimizing R code. Profiling is your ground truth! When profiling indicates that otherwise well-factored code is slowed by tidy interfaces, though, all is not lost.
We’ll demonstrate different ways to speed up tidy code using a version of the base R data frame mtcars converted to a tibble:

mtcars_tbl <- as_tibble(mtcars, rownames = "make_model")

mtcars_tbl
#> # A tibble: 32 × 12
#>    make_model    mpg   cyl  disp    hp  drat    wt  qsec    vs    am  gear  carb
#>    <chr>       <dbl> <dbl> <dbl> <dbl> <dbl> <dbl> <dbl> <dbl> <dbl> <dbl> <dbl>
#>  1 Mazda RX4    21       6  160    110  3.9   2.62  16.5     0     1     4     4
#>  2 Mazda RX4 …  21       6  160    110  3.9   2.88  17.0     0     1     4     4
#>  3 Datsun 710   22.8     4  108     93  3.85  2.32  18.6     1     1     4     1
#>  4 Hornet 4 D…  21.4     6  258    110  3.08  3.22  19.4     1     0     3     1
#>  5 Hornet Spo…  18.7     8  360    175  3.15  3.44  17.0     0     0     3     2
#>  6 Valiant      18.1     6  225    105  2.76  3.46  20.2     1     0     3     1
#>  7 Duster 360   14.3     8  360    245  3.21  3.57  15.8     0     0     3     4
#>  8 Merc 240D    24.4     4  147.    62  3.69  3.19  20       1     0     4     2
#>  9 Merc 230     22.8     4  141.    95  3.92  3.15  22.9     1     0     4     2
#> 10 Merc 280     19.2     6  168.   123  3.92  3.44  18.3     1     0     4     4
#> # ℹ 22 more rows
…
