Fonts in R
…
systemfonts::match_fonts("Futura", weight = "bold")
#> # A tibble: 1 × 3
#>   path                                          index features  
#>   <chr>                                         <int> <list>    
#> 1 /System/Library/Fonts/Supplemental/Futura.ttc     2 <font_ftr>
systemfonts::font_fallback("🎉", family = "Futura", weight = "bold")
#>                                          path index
#> 1 /System/Library/Fonts/Apple Color Emoji.ttc     0

If you want to see all the fonts that are available for use, you can use
systemfonts::system_fonts()

systemfonts::system_fonts()

#> # A tibble: 570 × 9
#>    path                                         index name  family style weight width italic monospace
#>    <chr>                                        <int> <chr> <chr>  <chr> <ord>  <ord> <lgl>  <lgl>    
#>  1 /System/Library/Fonts/Supplemental/Rockwell…     2 Rock… Rockw… Bold  bold   norm… FALSE  FALSE    
#>  2 /System/Library/Fonts/Noteworthy.ttc             0 Note… Notew… Light normal norm… FALSE  FALSE    
#>  3 /System/Library/Fonts/Supplemental/Devanaga…     1 Deva… Devan… Bold  bold   norm… FALSE  FALSE    
#>  4 /System/Library/Fonts/Supplemental/Kannada …     0 Kann… Kanna… Regu… normal norm… FALSE  FALSE    
#>  5 /System/Library/Fonts/Supplemental/Verdana …     0 Verd… Verda… Bold  bold   norm… FALSE  FALSE    
#>  6 /System/Library/Fonts/ArialHB.ttc                8 Aria… Arial… Light light  norm… FALSE  FALSE    
#>  7 /System/Library/Fonts/AppleSDGothicNeo.ttc      10 Appl… Apple… Thin  thin   norm… FALSE  FALSE    
#>  8 /System/Library/Fonts/Supplemental/DecoType…     0 Deco… DecoT… Regu… normal norm… FALSE  FALSE    
#>  9 /System/Library/Fonts/Supplemental/Trebuche…     0 Treb… Trebu… Ital… normal norm… TRUE   FALSE    
#> 10 /System/Library/Fonts/Supplemental/Khmer MN…     0 Khme… Khmer… Regu… normal norm… FALSE  FALSE    
#> # ℹ 560 more rows
…
