orbital 0.3.0
…
This object contains all the information that is needed to produce predictions. Which we can produce with
predict().

predict(orbital_obj, penguins)
#> # A tibble: 344 × 1
#>    .pred_class
#>    <chr>      
#>  1 Adelie     
#>  2 Adelie     
#>  3 Adelie     
#>  4 Adelie     
#>  5 Adelie     
#>  6 Adelie     
#>  7 Adelie     
#>  8 Adelie     
#>  9 Adelie     
#> 10 Adelie     
#> # ℹ 334 more rows
…
Notice how we can select both "class" and "prob". The predictions now include both hard and soft class predictions.

predict(orbital_obj_prob, penguins)
#> # A tibble: 344 × 4
#>    .pred_class .pred_Adelie .pred_Chinstrap .pred_Gentoo
#>    <chr>              <dbl>           <dbl>        <dbl>
#>  1 Adelie             0.989         0.00554      0.00560
#>  2 Adelie             0.989         0.00554      0.00560
#>  3 Adelie             0.989         0.00554      0.00560
#>  4 Adelie             0.709         0.0245       0.267  
#>  5 Adelie             0.989         0.00554      0.00560
#>  6 Adelie             0.989         0.00554      0.00560
#>  7 Adelie             0.989         0.00554      0.00560
#>  8 Adelie             0.989         0.00554      0.00560
#>  9 Adelie             0.979         0.00549      0.0158 
#> 10 Adelie             0.980         0.00559      0.0148 
#> # ℹ 334 more rows
…
New augment method

The users of tidymodels have found the
augment() function to be a handy tool. This function performs predictions and returns them alongside the original data set.
This release adds
augment() support for orbital objects.

augment(orbital_obj, penguins)
#> # A tibble: 344 × 8
#>    .pred_class species island    bill_length_mm bill_depth_mm flipper_length_mm
#>    <chr>       <fct>   <fct>              <dbl>         <dbl>             <int>
#>  1 Adelie      Adelie  Torgersen           39.1          18.7               181
#>  2 Adelie      Adelie  Torgersen           39.5          17.4               186
#>  3 Adelie      Adelie  Torgersen           40.3          18                 195
#>  4 Adelie      Adelie  Torgersen           NA            NA                  NA
#>  5 Adelie      Adelie  Torgersen           36.7          19.3               193
#>  6 Adelie      Adelie  Torgersen           39.3          20.6               190
#>  7 Adelie      Adelie  Torgersen           38.9          17.8               181
#>  8 Adelie      Adelie  Torgersen           39.2          19.6               195
#>  9 Adelie      Adelie  Torgersen           34.1          18.1               193
#> 10 Adelie      Adelie  Torgersen           42            20.2               190
#> # ℹ 334 more rows
#> # ℹ 2 more variables: body_mass_g <int>, sex <fct>
…
