broom 0.5.0
…
All tidiers should now return tibbles rather than data.frames. This allows broom to take advantage of the nice tibble print method and the more consistent behavior of tibbles:

library(broom)

fit <- lm(mpg ~ ., mtcars)
tidy(fit)

## # A tibble: 11 x 5
##   term        estimate std.error statistic p.value
##   <chr>          <dbl>     <dbl>     <dbl>   <dbl>
## 1 (Intercept)  12.3      18.7        0.657   0.518
## 2 cyl          -0.111     1.05      -0.107   0.916
## 3 disp          0.0133    0.0179     0.747   0.463
## 4 hp           -0.0215    0.0218    -0.987   0.335
## 5 drat          0.787     1.64       0.481   0.635
## # ... with 6 more rows
…
