New interface to validation splits
…
Even after omitting rows with missing values are we left with 23593 observations. That is plenty to work with! We are likely to get a reliable estimate of the model performance from a validation set without having to fit and evaluate the model multiple times, as with, for example, v-fold cross-validation.
We are creating a three-way split of the data into a training, a validation, and a test set with the new initial_validation_split() function. We are stratifying based on our outcome mcsa. The default of prop = c(0.6, 0.2) means that 60% of the data gets allocated to the training set and 20% to the validation set - and the remaining 20% go into the test set.

set.seed(123)
childcare_split <- childcare_costs |>
  initial_validation_split(strata = mcsa)
childcare_split
#> <Training/Validation/Testing/Total>
#> <14155/4718/4720/23593>

You can access the subsets of the data with the familiar training() and testing() as well as the new validation():

validation(childcare_split)
#> # A tibble: 4,718 × 53
#>    study_year unr_16 funr_16 munr_16 unr_20to64 funr_20to64 munr_20to64
#>         <dbl>  <dbl>   <dbl>   <dbl>      <dbl>       <dbl>       <dbl>
#>  1       2013   9.39   10.3     8.56        7.3         7.6         7  
#>  2       2011  13.0    12.4    13.6        13.2        12.4        13.9
#>  3       2008   3.85    4.4     3.43        3.7         3.9         3.6
#>  4       2015   8.31   11.8     5.69        7.8        11.7         4.9
#>  5       2015   7.67    6.92    8.27        7.6         6.7         8.3
#>  6       2016   5.95    6.33    5.66        5.7         5.9         5.5
#>  7       2009  10.7    15.9     7.06        8.7        16.8         2.9
#>  8       2010  11.2    15.2     7.89       10.9        14.7         7.8
#>  9       2013  15.0    17.0    13.4        15.2        18.1        13  
#> 10       2014  17.4    16.3    18.2        17.2        17.7        16.9
#> # ℹ 4,708 more rows
#> # ℹ 46 more variables: flfpr_20to64 <dbl>, flfpr_20to64_under6 <dbl>,
#> #   flfpr_20to64_6to17 <dbl>, flfpr_20to64_under6_6to17 <dbl>,
#> #   mlfpr_20to64 <dbl>, pr_f <dbl>, pr_p <dbl>, mhi_2018 <dbl>, me_2018 <dbl>,
#> #   fme_2018 <dbl>, mme_2018 <dbl>, total_pop <dbl>, one_race <dbl>,
#> #   one_race_w <dbl>, one_race_b <dbl>, one_race_i <dbl>, one_race_a <dbl>,
#> #   one_race_h <dbl>, one_race_other <dbl>, two_races <dbl>, hispanic <dbl>, …
…
