Comprehensive Date-Time Handling for R
…
The best place to start learning about clock is by checking out the
High-Level API. This lists all of the utilities in clock that work with R’s native date (Date) and date-time (POSIXct) types. You’ll notice that all of these helpers start with one of the following prefixes:
get_*(): Get a component

set_*(): Set a component

add_*(): Add a unit of time

date_*(): General date manipulation

We’ll explore some of these with a trimmed down version of the flights dataset from the nycflights13 package.

flights
#> # A tibble: 100 x 5
#>     year month   day dep_time dep_delay
#>    <int> <int> <int>    <int>     <dbl>
#>  1  2013     1     6     1827        -3
#>  2  2013     1     8     1458        -2
#>  3  2013     1    17     1823        80
#>  4  2013     1    26     1052        13
#>  5  2013     1    29      448       -12
#>  6  2013     1    30        3       124
#>  7  2013     2     1      816        -9
#>  8  2013     2     4     1943         3
#>  9  2013     2    10     1508        36
#> 10  2013     2    13     2033        33
#> # … with 90 more rows

The flight departure date is separated into year, month, and day fields. We can combine these together into a Date with
date_build().

flights <- flights %>%
  mutate(
    date = date_build(year, month, day), 
    .keep = "unused", 
    .before = 1
  )

flights
#> # A tibble: 100 x 3
#>    date       dep_time dep_delay
#>    <date>        <int>     <dbl>
#>  1 2013-01-06     1827        -3
#>  2 2013-01-08     1458        -2
#>  3 2013-01-17     1823        80
#>  4 2013-01-26     1052        13
#>  5 2013-01-29      448       -12
#>  6 2013-01-30        3       124
#>  7 2013-02-01      816        -9
#>  8 2013-02-04     1943         3
#>  9 2013-02-10     1508        36
#> 10 2013-02-13     2033        33
#> # … with 90 more rows

If you need to get those individual components back, extract them with the corresponding get_*() function.

mutate(flights, year = get_year(date), month = get_month(date))
#> # A tibble: 100 x 5
#>    date       dep_time dep_delay  year month
#>    <date>        <int>     <dbl> <int> <int>
#>  1 2013-01-06     1827        -3  2013     1
#>  2 2013-01-08     1458        -2  2013     1
#>  3 2013-01-17     1823        80  2013     1
#>  4 2013-01-26     1052        13  2013     1
#>  5 2013-01-29      448       -12  2013     1
#>  6 2013-01-30        3       124  2013     1
#>  7 2013-02-01      816        -9  2013     2
#>  8 2013-02-04     1943         3  2013     2
#>  9 2013-02-10     1508        36  2013     2
#> 10 2013-02-13     2033        33  2013     2
#> # … with 90 more rows
…
If you’ve used lubridate before, you would have probably used
lubridate::floor_date() for this. In clock, date summarization is broken into three groups: grouping, shifting, and rounding. This separation leads to code that is both less surprising, and more powerful, giving you the ability to summarize in new ways, such as: flooring by multiple weeks, grouping by day of the quarter, and flooring by rolling sets of, say, 60 days.
Be sure to check out the many other high-level tools for working with dates, including powerful utilities for formatting (
date_format()) and parsing (
date_parse() and
date_time_parse()).
As a lubridate user, none of the above should seem particularly revolutionary, and that’s the entire idea of the high-level API. We’ve tried to make transitioning over to clock as easy as possible. In the following sections, you’ll see some of the benefits you’ll get from doing so.
Invalid dates

Using our flights data, imagine we want to add 1 month to date, perhaps to set up some kind of forward looking variable. With lubridate, we can use + months(1).

mutate(flights, date2 = date + months(1))
#> # A tibble: 100 x 4
#>    date       dep_time dep_delay date2     
#>    <date>        <int>     <dbl> <date>    
#>  1 2013-01-06     1827        -3 2013-02-06
#>  2 2013-01-08     1458        -2 2013-02-08
#>  3 2013-01-17     1823        80 2013-02-17
#>  4 2013-01-26     1052        13 2013-02-26
#>  5 2013-01-29      448       -12 NA        
#>  6 2013-01-30        3       124 NA        
#>  7 2013-02-01      816        -9 2013-03-01
#>  8 2013-02-04     1943         3 2013-03-04
#>  9 2013-02-10     1508        36 2013-03-10
#> 10 2013-02-13     2033        33 2013-03-13
#> # … with 90 more rows
…
To get what we want, we need to convince the date column to “forget” that it is UTC, then add on the America/New_York time zone. With clock, we’ll do this by going through a new intermediate type called naive-time, a date-time type with a yet-to-be-specified time zone. The ability to separate a date-time from its associated time zone is one of clock’s most powerful features, which we’ll explore more in the Time Points section below. For now, the important thing is that this retains the printed time as we expected.

flights_dt <- flights_hm %>%
  mutate(
    datetime = as.POSIXct(as_naive_time(date), "America/New_York"),
    .keep = "unused",
    .before = 1
  )

flights_dt
#> # A tibble: 100 x 3
#>    datetime             hour minute
#>    <dttm>              <int>  <int>
#>  1 2013-01-06 00:00:00    18     27
#>  2 2013-01-08 00:00:00    14     58
#>  3 2013-01-17 00:00:00    18     23
#>  4 2013-01-26 00:00:00    10     52
#>  5 2013-01-29 00:00:00     4     48
#>  6 2013-01-30 00:00:00     0      3
#>  7 2013-02-01 00:00:00     8     16
#>  8 2013-02-04 00:00:00    19     43
#>  9 2013-02-10 00:00:00    15      8
#> 10 2013-02-13 00:00:00    20     33
#> # … with 90 more rows

We can now add on our hours and minutes.

flights_dt <- flights_dt %>%
  mutate(
    datetime = datetime %>%
      add_hours(hour) %>%
      add_minutes(minute),
    .keep = "unused"
  )

flights_dt
#> # A tibble: 100 x 1
#>    datetime           
#>    <dttm>             
#>  1 2013-01-06 18:27:00
#>  2 2013-01-08 14:58:00
#>  3 2013-01-17 18:23:00
#>  4 2013-01-26 10:52:00
#>  5 2013-01-29 04:48:00
#>  6 2013-01-30 00:03:00
#>  7 2013-02-01 08:16:00
#>  8 2013-02-04 19:43:00
#>  9 2013-02-10 15:08:00
#> 10 2013-02-13 20:33:00
#> # … with 90 more rows

Now assume that we want to add two days to this datetime column, again to construct some forward looking variable.

flights_dt_lubridate <- flights_dt %>%
  mutate(datetime2 = datetime + days(2))

flights_dt_lubridate
#> # A tibble: 100 x 2
#>    datetime            datetime2          
#>    <dttm>              <dttm>             
#>  1 2013-01-06 18:27:00 2013-01-08 18:27:00
#>  2 2013-01-08 14:58:00 2013-01-10 14:58:00
#>  3 2013-01-17 18:23:00 2013-01-19 18:23:00
#>  4 2013-01-26 10:52:00 2013-01-28 10:52:00
#>  5 2013-01-29 04:48:00 2013-01-31 04:48:00
#>  6 2013-01-30 00:03:00 2013-02-01 00:03:00
#>  7 2013-02-01 08:16:00 2013-02-03 08:16:00
#>  8 2013-02-04 19:43:00 2013-02-06 19:43:00
#>  9 2013-02-10 15:08:00 2013-02-12 15:08:00
#> 10 2013-02-13 20:33:00 2013-02-15 20:33:00
#> # … with 90 more rows
…
As shown above, you can convert from one calendar to another with functions like
as_year_quarter_day(), and to Date or POSIXct with the standard
as.Date() and
as.POSIXct() functions.
One of the most unique features of calendars is the ability to represent invalid dates directly. In a previous section, we added 1 month to a Date and used the invalid argument to resolve invalid date issues. Let’s swap to a year-month-day and try again. We can also use the cleaner + duration_months() syntax here, which we can’t use with Dates.

invalids <- flights %>%
  select(date) %>%
  mutate(
    ymd = as_year_month_day(date),
    ymd2 = ymd + duration_months(1)
  )

invalids
#> # A tibble: 100 x 3
#>    date       ymd        ymd2      
#>    <date>     <ymd<day>> <ymd<day>>
#>  1 2013-01-06 2013-01-06 2013-02-06
#>  2 2013-01-08 2013-01-08 2013-02-08
#>  3 2013-01-17 2013-01-17 2013-02-17
#>  4 2013-01-26 2013-01-26 2013-02-26
#>  5 2013-01-29 2013-01-29 2013-02-29
#>  6 2013-01-30 2013-01-30 2013-02-30
#>  7 2013-02-01 2013-02-01 2013-03-01
#>  8 2013-02-04 2013-02-04 2013-03-04
#>  9 2013-02-10 2013-02-10 2013-03-10
#> 10 2013-02-13 2013-02-13 2013-03-13
#> # … with 90 more rows

The ymd2 column directly contains the invalid dates, 2013-02-29 and 2013-02-30! You can resolve these dates at any time using
invalid_resolve(), providing an invalid resolution strategy like we did earlier. Or, you can ignore them if you expect them to be resolved naturally in some other way. For example, if our end goal was to add 1 month, then fix the day of the month to the 15th, then these invalid dates would naturally resolve themselves:

mutate(invalids, ymd3 = set_day(ymd2, 15))
#> # A tibble: 100 x 4
#>    date       ymd        ymd2       ymd3      
#>    <date>     <ymd<day>> <ymd<day>> <ymd<day>>
#>  1 2013-01-06 2013-01-06 2013-02-06 2013-02-15
#>  2 2013-01-08 2013-01-08 2013-02-08 2013-02-15
#>  3 2013-01-17 2013-01-17 2013-02-17 2013-02-15
#>  4 2013-01-26 2013-01-26 2013-02-26 2013-02-15
#>  5 2013-01-29 2013-01-29 2013-02-29 2013-02-15
#>  6 2013-01-30 2013-01-30 2013-02-30 2013-02-15
#>  7 2013-02-01 2013-02-01 2013-03-01 2013-03-15
#>  8 2013-02-04 2013-02-04 2013-03-04 2013-03-15
#>  9 2013-02-10 2013-02-10 2013-03-10 2013-03-15
#> 10 2013-02-13 2013-02-13 2013-03-13 2013-03-15
#> # … with 90 more rows
…
Time points and zoned-times

The daylight saving time section of this post was complicated by the need to work around time zones. If your analysis doesn’t actually require time zones, you can represent a date or date-time using a naive-time. This date-time type makes no assumption about the current time zone, instead assuming that there is a yet-to-be-specified time zone that hasn’t been declared yet.

flights_nt <- flights_hm %>%
  mutate(
    naive_day = as_naive_time(date),
    naive_time = naive_day + duration_hours(hour) + duration_minutes(minute)
  ) %>%
  select(date, starts_with("naive"))

flights_nt
#> # A tibble: 100 x 3
#>    date       naive_day        naive_time         
#>    <date>     <tp<naive><day>> <tp<naive><minute>>
#>  1 2013-01-06 2013-01-06       2013-01-06 18:27   
#>  2 2013-01-08 2013-01-08       2013-01-08 14:58   
#>  3 2013-01-17 2013-01-17       2013-01-17 18:23   
#>  4 2013-01-26 2013-01-26       2013-01-26 10:52   
#>  5 2013-01-29 2013-01-29       2013-01-29 04:48   
#>  6 2013-01-30 2013-01-30       2013-01-30 00:03   
#>  7 2013-02-01 2013-02-01       2013-02-01 08:16   
#>  8 2013-02-04 2013-02-04       2013-02-04 19:43   
#>  9 2013-02-10 2013-02-10       2013-02-10 15:08   
#> 10 2013-02-13 2013-02-13       2013-02-13 20:33   
#> # … with 90 more rows

Going from Date -> naive-time has dropped the UTC time zone assumption altogether, while keeping the printed time. This allowed us to convert back to POSIXct in an earlier example. Essentially, all that we were doing was declaring that yet-to-be-specified time zone as America/New_York, keeping the printed time where possible. We could have easily chosen a different time zone, like Europe/London.

flights_nt %>%
  select(naive_time) %>%
  mutate(
    datetime_ny = as.POSIXct(naive_time, "America/New_York"),
    datetime_lo = as.POSIXct(naive_time, "Europe/London")
  )
#> # A tibble: 100 x 3
#>    naive_time          datetime_ny         datetime_lo        
#>    <tp<naive><minute>> <dttm>              <dttm>             
#>  1 2013-01-06 18:27    2013-01-06 18:27:00 2013-01-06 18:27:00
#>  2 2013-01-08 14:58    2013-01-08 14:58:00 2013-01-08 14:58:00
#>  3 2013-01-17 18:23    2013-01-17 18:23:00 2013-01-17 18:23:00
#>  4 2013-01-26 10:52    2013-01-26 10:52:00 2013-01-26 10:52:00
#>  5 2013-01-29 04:48    2013-01-29 04:48:00 2013-01-29 04:48:00
#>  6 2013-01-30 00:03    2013-01-30 00:03:00 2013-01-30 00:03:00
#>  7 2013-02-01 08:16    2013-02-01 08:16:00 2013-02-01 08:16:00
#>  8 2013-02-04 19:43    2013-02-04 19:43:00 2013-02-04 19:43:00
#>  9 2013-02-10 15:08    2013-02-10 15:08:00 2013-02-10 15:08:00
#> 10 2013-02-13 20:33    2013-02-13 20:33:00 2013-02-13 20:33:00
#> # … with 90 more rows
…
