haven 2.2.0
…
And col_select() allows you to read in just some of the columns, using the same syntax that you use with
dplyr::select():

read_dta("diamonds.dta", col_select = c(x:z))
#> # A tibble: 53,940 x 3
#>        x     y     z
#>    <dbl> <dbl> <dbl>
#>  1  3.95  3.98  2.43
#>  2  3.89  3.84  2.31
#>  3  4.05  4.07  2.31
#>  4  4.2   4.23  2.63
#>  5  4.34  4.35  2.75
#>  6  3.94  3.96  2.48
#>  7  3.95  3.98  2.47
#>  8  4.07  4.11  2.53
#>  9  3.87  3.78  2.49
#> 10  4     4.05  2.39
#> # … with 53,930 more rows

read_dta("diamonds.dta", col_select = starts_with("c"))
#> # A tibble: 53,940 x 4
#>    carat           cut     color   clarity
#>    <dbl>     <dbl+lbl> <dbl+lbl> <dbl+lbl>
#>  1 0.23  5 [Ideal]         2 [E]  2 [SI2] 
#>  2 0.21  4 [Premium]       2 [E]  3 [SI1] 
#>  3 0.23  2 [Good]          2 [E]  5 [VS1] 
#>  4 0.290 4 [Premium]       6 [I]  4 [VS2] 
#>  5 0.31  2 [Good]          7 [J]  2 [SI2] 
#>  6 0.24  3 [Very Good]     7 [J]  6 [VVS2]
#>  7 0.24  3 [Very Good]     6 [I]  7 [VVS1]
#>  8 0.26  3 [Very Good]     5 [H]  3 [SI1] 
#>  9 0.22  1 [Fair]          2 [E]  4 [VS2] 
#> 10 0.23  3 [Very Good]     5 [H]  5 [VS1] 
#> # … with 53,930 more rows
…
