…
This is a 3D array, so let's convert to a rectangular data format:


```r
library(tidymodels)

ucb <- 
  as_tibble(UCBAdmissions) %>% 
  mutate(across(where(is.character), ~ as.factor(.)))
ucb
```

```
## # A tibble: 24 × 4
##    Admit    Gender Dept      n
##    <fct>    <fct>  <fct> <dbl>
##  1 Admitted Male   A       512
##  2 Rejected Male   A       313
##  3 Admitted Female A        89
##  4 Rejected Female A        19
##  5 Admitted Male   B       353
##  6 Rejected Male   B       207
##  7 Admitted Female B        17
##  8 Rejected Female B         8
##  9 Admitted Male   C       120
## 10 Rejected Male   C       205
## # … with 14 more rows
```
…
## How does tidymodels handle this? 

We've decided to add some additional vector data types that allow users to describe the type of weights. These data types also help tidymodels functions know what the intent of the analysis should be. 

In parsnip, the functions `frequency_weights()` and `importance_weights()` can be used to set the weights: 


```r
# For the UC admissions data
ucb$n <- frequency_weights(ucb$n)
ucb
```

```
## # A tibble: 24 × 4
##    Admit    Gender Dept           n
##    <fct>    <fct>  <fct> <freq_wts>
##  1 Admitted Male   A            512
##  2 Rejected Male   A            313
##  3 Admitted Female A             89
##  4 Rejected Female A             19
##  5 Admitted Male   B            353
##  6 Rejected Male   B            207
##  7 Admitted Female B             17
##  8 Rejected Female B              8
##  9 Admitted Male   C            120
## 10 Rejected Male   C            205
## # … with 14 more rows
```
…
