dplyr 1.1.0: `pick()`, `reframe()`, and `arrange()`
…
These changes were made for two reasons:
Much faster performance by default, due to usage of a custom radix sort algorithm inspired by
data.table‘s forder()

Improved reproducibility across R sessions, where different computers might use different system locales and different operating systems have different ways to specify the same system locale

If you use
arrange() for the purpose of grouping similar values together (and don’t care much about the specific locale that it uses to do so), then you’ll likely see performance improvements of up to 100x in dplyr 1.1.0. If you do care about the locale and supply .locale, you should still see improvements of up to 10x.

# 10,000 random strings, sampled up to 1,000,000 rows
dictionary <- stringi::stri_rand_strings(10000, length = 10, pattern = "[a-z]")
str <- tibble(x = sample(dictionary, size = 1e6, replace = TRUE))
str
#> # A tibble: 1,000,000 × 1
#>    x         
#>    <chr>     
#>  1 slpqkdtpyr
#>  2 xtoucpndhc
#>  3 vsvfoqcyqm
#>  4 gnbpkwcmse
#>  5 xutzdqxpsi
#>  6 gkolsrndrz
#>  7 mitqahkkou
#>  8 eehfrrimhd
#>  9 ymxxjczjsv
#> 10 svpvizfxwe
#> # … with 999,990 more rows
…
