tidyr 1.0.0
…
We can now tidy this in a single step by using the special .value
variable name:

anscombe %>% 
  pivot_longer(
    everything(),
    names_to = c(".value", "set"),
    names_pattern = "(.)(.)"
  ) %>% 
  as_tibble()
#> # A tibble: 44 x 3
#>   set       x     y
#>   <chr> <dbl> <dbl>
#> 1 1        10  8.04
#> 2 2        10  9.14
#> 3 3        10  7.46
#> 4 4         8  6.58
#> 5 1         8  6.95
#> 6 2         8  8.14
#> # … with 38 more rows

pivot_wider() can now do simple aggregations (reshape2::dcast() fans
rejoice!). For example, take the base warpbreaks dataset (converted to a
tibble to print more compactly):

warpbreaks <- warpbreaks %>% as_tibble() %>% select(wool, tension, breaks)
warpbreaks
#> # A tibble: 54 x 3
#>   wool  tension breaks
#>   <fct> <fct>    <dbl>
#> 1 A     L           26
#> 2 A     L           30
#> 3 A     L           54
#> 4 A     L           25
#> 5 A     L           70
#> 6 A     L           52
#> # … with 48 more rows
…
This is primarily of internal interest, but it considerably simplifies the implementation of nest(), and you may occasionally find the underlying functions useful when working with exotic data structures.
expand_grid()

expand_grid() completes the existing family of expand(), nesting(), and crossing() with a low-level function that works with vectors:

expand_grid(
  x = 1:3,
  y = letters[1:3],
  z = LETTERS[1:3]
)
#> # A tibble: 27 x 3
#>       x y     z    
#>   <int> <chr> <chr>
#> 1     1 a     A    
#> 2     1 a     B    
#> 3     1 a     C    
#> 4     1 b     A    
#> 5     1 b     B    
#> 6     1 b     C    
#> # … with 21 more rows
…
