Q2 2022 tidymodels digest
…
set.seed(1)
training_sim <- sim_classification(5000, intercept = -25) %>% 
  mutate(
    case_wts = ifelse(class == "class_1", 60, 1),
    case_wts = importance_weights(case_wts)
  )

training_sim %>%
  relocate(case_wts, .after = class)
#> # A tibble: 5,000 × 17
#>    class    case_wts two_factor_1 two_factor_2 non_linear_1 non_linear_2
#>    <fct>   <imp_wts>        <dbl>        <dbl>        <dbl>        <dbl>
#>  1 class_2         1       0.0924       -1.70       -0.579         0.201
#>  2 class_2         1      -0.136         0.608      -0.770         0.114
#>  3 class_2         1      -0.0806       -2.07       -0.709         0.272
#>  4 class_2         1       1.35          2.75       -0.380         0.785
#>  5 class_2         1      -0.238         1.08       -0.700         0.638
#>  6 class_2         1      -0.322        -1.79        0.0534        0.470
#>  7 class_2         1       1.35         -0.102      -0.764         0.827
#>  8 class_2         1       0.595         1.30       -0.0454        0.493
#>  9 class_2         1       0.563         0.916      -0.383         0.775
#> 10 class_2         1      -0.327        -0.457      -0.390         0.704
#> # … with 4,990 more rows, and 11 more variables: non_linear_3 <dbl>,
#> #   linear_01 <dbl>, linear_02 <dbl>, linear_03 <dbl>, linear_04 <dbl>,
#> #   linear_05 <dbl>, linear_06 <dbl>, linear_07 <dbl>, linear_08 <dbl>,
#> #   linear_09 <dbl>, linear_10 <dbl>
…
