Q4 2022 tidymodels digest
…
This is one of a number of new selectors:
The all_nominal() selector now has finer-grained versions all_string(), all_factor(), all_unordered(), and all_ordered().

The all_numeric() selector now has finer-grained versions all_double(), and all_integer().

New all_logical(), all_date(), and all_datetime() selectors.

All new selectors have *_predictors() variants. You can read more about recipes 1.0.3 in the
release notes.
Grouped resampling

The most recent release of rsample introduced support for stratification with grouped resampling. Consider the following toy data set on the number of melons in a household:

melons
#> # A tibble: 4,928 × 3
#>    household n_melons chops
#>    <fct>        <int> <chr>
#>  1 1              114 Yes  
#>  2 1              179 Yes  
#>  3 1              163 Yes  
#>  4 1               35 Yes  
#>  5 1               93 Yes  
#>  6 1               55 Yes  
#>  7 1              165 Yes  
#>  8 1               30 Yes  
#>  9 1              140 Yes  
#> 10 1                7 Yes  
#> # … with 4,918 more rows
…
