Q3 2021 tidymodels roundup
…
data(tate_text)

library(textrecipes)
paper_or_canvas <- c("paper", "canvas")

recipe(~ ., data = tate_text) %>%
  step_tokenize(medium) %>%
  step_stopwords(medium, custom_stopword_source = paper_or_canvas, keep = TRUE) %>%
  step_tf(medium) %>%
  prep() %>%
  bake(new_data = NULL) %>%
  select(artist, year, starts_with("tf"))
#> # A tibble: 4,284 × 4
#>    artist              year tf_medium_canvas tf_medium_paper
#>    <fct>              <dbl>            <dbl>           <dbl>
#>  1 Absalon             1990                0               0
#>  2 Auerbach, Frank     1990                0               1
#>  3 Auerbach, Frank     1990                0               1
#>  4 Auerbach, Frank     1990                0               1
#>  5 Auerbach, Frank     1990                1               0
#>  6 Ayres, OBE Gillian  1990                1               0
#>  7 Barlow, Phyllida    1990                0               1
#>  8 Baselitz, Georg     1990                0               1
#>  9 Beattie, Basil      1990                1               0
#> 10 Beuys, Joseph       1990                0               1
#> # … with 4,274 more rows
…
