dplyr 0.8.2
…
library(dplyr)
#> 
#> Attaching package: 'dplyr'
#> The following objects are masked from 'package:stats':
#> 
#>     filter, lag
#> The following objects are masked from 'package:base':
#> 
#>     intersect, setdiff, setequal, union
gapminder::gapminder %>% 
  filter(year == 2007) %>% 
  group_by(continent) %>% 
  top_n(n() / 2, lifeExp)
#> # A tibble: 70 x 6
#> # Groups:   continent [5]
#>    country   continent  year lifeExp        pop gdpPercap
#>    <fct>     <fct>     <int>   <dbl>      <int>     <dbl>
#>  1 Algeria   Africa     2007    72.3   33333216     6223.
#>  2 Argentina Americas   2007    75.3   40301927    12779.
#>  3 Australia Oceania    2007    81.2   20434176    34435.
#>  4 Austria   Europe     2007    79.8    8199783    36126.
#>  5 Bahrain   Asia       2007    75.6     708573    29796.
#>  6 Belgium   Europe     2007    79.4   10392226    33693.
#>  7 Benin     Africa     2007    56.7    8078314     1441.
#>  8 Canada    Americas   2007    80.7   33390141    36319.
#>  9 Chile     Americas   2007    78.6   16284741    13172.
#> 10 China     Asia       2007    73.0 1318683096     4959.
#> # … with 60 more rows

top_frac() is new convenience shortcut for
the top n percent, i.e.

gapminder::gapminder %>% 
  filter(year == 2007) %>% 
  group_by(continent) %>% 
  top_frac(0.5, lifeExp)
#> # A tibble: 70 x 6
#> # Groups:   continent [5]
#>    country   continent  year lifeExp        pop gdpPercap
#>    <fct>     <fct>     <int>   <dbl>      <int>     <dbl>
#>  1 Algeria   Africa     2007    72.3   33333216     6223.
#>  2 Argentina Americas   2007    75.3   40301927    12779.
#>  3 Australia Oceania    2007    81.2   20434176    34435.
#>  4 Austria   Europe     2007    79.8    8199783    36126.
#>  5 Bahrain   Asia       2007    75.6     708573    29796.
#>  6 Belgium   Europe     2007    79.4   10392226    33693.
#>  7 Benin     Africa     2007    56.7    8078314     1441.
#>  8 Canada    Americas   2007    80.7   33390141    36319.
#>  9 Chile     Americas   2007    78.6   16284741    13172.
#> 10 China     Asia       2007    73.0 1318683096     4959.
#> # … with 60 more rows
…
# pak::pkg_install("tidyverse/tidyr#668")

iris %>%
  group_by(Species) %>% 
  tidyr::gather("flower_att", "measurement", -group_cols())
#> # A tibble: 600 x 3
#> # Groups:   Species [3]
#>    Species flower_att   measurement
#>    <fct>   <chr>              <dbl>
#>  1 setosa  Sepal.Length         5.1
#>  2 setosa  Sepal.Length         4.9
#>  3 setosa  Sepal.Length         4.7
#>  4 setosa  Sepal.Length         4.6
#>  5 setosa  Sepal.Length         5  
#>  6 setosa  Sepal.Length         5.4
#>  7 setosa  Sepal.Length         4.6
#>  8 setosa  Sepal.Length         5  
#>  9 setosa  Sepal.Length         4.4
#> 10 setosa  Sepal.Length         4.9
#> # … with 590 more rows
…
