recipes 1.3.0
…
library(recipes)

strings_as_factors

Recipes by default convert predictor strings to factors, and the option for that is located in
prep(). This caused an issue when you wanted to set strings_as_factors = FALSE for a recipe that is used somewhere else like in a workflow.
This is no longer an issue as we have moved the argument to
recipe() itself. We are at the same time deprecating the use of strings_as_factors when used in
prep(). Here is an example:

library(modeldata)
tate_text
#> # A tibble: 4,284 × 5
#>        id artist             title                                  medium  year
#>     <dbl> <fct>              <chr>                                  <fct>  <dbl>
#>  1  21926 Absalon            Proposals for a Habitat                Video…  1990
#>  2  20472 Auerbach, Frank    Michael                                Etchi…  1990
#>  3  20474 Auerbach, Frank    Geoffrey                               Etchi…  1990
#>  4  20473 Auerbach, Frank    Jake                                   Etchi…  1990
#>  5  20513 Auerbach, Frank    To the Studios                         Oil p…  1990
#>  6  21389 Ayres, OBE Gillian Phaëthon                               Oil p…  1990
#>  7 121187 Barlow, Phyllida   Untitled                               Acryl…  1990
#>  8  19455 Baselitz, Georg    Green VIII                             Woodc…  1990
#>  9  20938 Beattie, Basil     Present Bound                          Oil p…  1990
#> 10 105941 Beuys, Joseph      Joseph Beuys: A Private Collection. A… Print…  1990
#> # ℹ 4,274 more rows

We are loading the modeldata package to get tate_text which has a character column title. If we don’t do anything then it turns into a factor.

recipe(~., data = tate_text) |>
  prep() |>
  bake(tate_text)
#> # A tibble: 4,284 × 5
#>        id artist             title                                  medium  year
#>     <dbl> <fct>              <fct>                                  <fct>  <dbl>
#>  1  21926 Absalon            Proposals for a Habitat                Video…  1990
#>  2  20472 Auerbach, Frank    Michael                                Etchi…  1990
#>  3  20474 Auerbach, Frank    Geoffrey                               Etchi…  1990
#>  4  20473 Auerbach, Frank    Jake                                   Etchi…  1990
#>  5  20513 Auerbach, Frank    To the Studios                         Oil p…  1990
#>  6  21389 Ayres, OBE Gillian Phaëthon                               Oil p…  1990
#>  7 121187 Barlow, Phyllida   Untitled                               Acryl…  1990
#>  8  19455 Baselitz, Georg    Green VIII                             Woodc…  1990
#>  9  20938 Beattie, Basil     Present Bound                          Oil p…  1990
#> 10 105941 Beuys, Joseph      Joseph Beuys: A Private Collection. A… Print…  1990
#> # ℹ 4,274 more rows

But we can set strings_as_factors = FALSE in
recipe() and it won’t anymore.

recipe(~., data = tate_text, strings_as_factors = FALSE) |>
  prep() |>
  bake(tate_text)
#> # A tibble: 4,284 × 5
#>        id artist             title                                  medium  year
#>     <dbl> <fct>              <chr>                                  <fct>  <dbl>
#>  1  21926 Absalon            Proposals for a Habitat                Video…  1990
#>  2  20472 Auerbach, Frank    Michael                                Etchi…  1990
#>  3  20474 Auerbach, Frank    Geoffrey                               Etchi…  1990
#>  4  20473 Auerbach, Frank    Jake                                   Etchi…  1990
#>  5  20513 Auerbach, Frank    To the Studios                         Oil p…  1990
#>  6  21389 Ayres, OBE Gillian Phaëthon                               Oil p…  1990
#>  7 121187 Barlow, Phyllida   Untitled                               Acryl…  1990
#>  8  19455 Baselitz, Georg    Green VIII                             Woodc…  1990
#>  9  20938 Beattie, Basil     Present Bound                          Oil p…  1990
#> 10 105941 Beuys, Joseph      Joseph Beuys: A Private Collection. A… Print…  1990
#> # ℹ 4,274 more rows

This change should also make pragmatic sense as whether you want to turn strings into factors is something that should encoded into the recipe itself.
Deprecating step_select()

We have started the process of deprecating
step_select(). Given the number of issues people are having with the step and the fact that it doesn’t play well with workflows we think this is the right call.
There are two main use cases where
step_select() was used: removing variables, and selecting variables. Removing variables when done with - in
step_select()

recipe(mpg ~ ., mtcars) |>
  step_select(-starts_with("d")) |>
  prep() |>
  bake(new_data = NULL)
#> # A tibble: 32 × 9
#>      cyl    hp    wt  qsec    vs    am  gear  carb   mpg
#>    <dbl> <dbl> <dbl> <dbl> <dbl> <dbl> <dbl> <dbl> <dbl>
#>  1     6   110  2.62  16.5     0     1     4     4  21  
#>  2     6   110  2.88  17.0     0     1     4     4  21  
#>  3     4    93  2.32  18.6     1     1     4     1  22.8
#>  4     6   110  3.22  19.4     1     0     3     1  21.4
#>  5     8   175  3.44  17.0     0     0     3     2  18.7
#>  6     6   105  3.46  20.2     1     0     3     1  18.1
#>  7     8   245  3.57  15.8     0     0     3     4  14.3
#>  8     4    62  3.19  20       1     0     4     2  24.4
#>  9     4    95  3.15  22.9     1     0     4     2  22.8
#> 10     6   123  3.44  18.3     1     0     4     4  19.2
#> # ℹ 22 more rows

These use cases can seamlessly be converted to use
step_rm() without the - for the same result.

recipe(mpg ~ ., mtcars) |>
  step_rm(starts_with("d")) |>
  prep() |>
  bake(new_data = NULL)
#> # A tibble: 32 × 9
#>      cyl    hp    wt  qsec    vs    am  gear  carb   mpg
#>    <dbl> <dbl> <dbl> <dbl> <dbl> <dbl> <dbl> <dbl> <dbl>
#>  1     6   110  2.62  16.5     0     1     4     4  21  
#>  2     6   110  2.88  17.0     0     1     4     4  21  
#>  3     4    93  2.32  18.6     1     1     4     1  22.8
#>  4     6   110  3.22  19.4     1     0     3     1  21.4
#>  5     8   175  3.44  17.0     0     0     3     2  18.7
#>  6     6   105  3.46  20.2     1     0     3     1  18.1
#>  7     8   245  3.57  15.8     0     0     3     4  14.3
#>  8     4    62  3.19  20       1     0     4     2  24.4
#>  9     4    95  3.15  22.9     1     0     4     2  22.8
#> 10     6   123  3.44  18.3     1     0     4     4  19.2
#> # ℹ 22 more rows
…
step_dummy() contrasts argument

Contrasts such as
contr.treatment() and
contr.poly() are used in
step_dummy() to determine how the steps should translate categorical values into one or more numeric columns. Traditionally the contrasts were set using
options() like so:

options(contrasts = c(unordered = "contr.poly", ordered = "contr.poly"))

recipe(~species + island, penguins) |>
  step_dummy(all_nominal_predictors()) |>
  prep() |>
  bake(new_data = penguins)
#> # A tibble: 344 × 4
#>    species_Chinstrap species_Gentoo island_Dream island_Torgersen
#>                <dbl>          <dbl>        <dbl>            <dbl>
#>  1            -0.707          0.408        0.707            0.408
#>  2            -0.707          0.408        0.707            0.408
#>  3            -0.707          0.408        0.707            0.408
#>  4            -0.707          0.408        0.707            0.408
#>  5            -0.707          0.408        0.707            0.408
#>  6            -0.707          0.408        0.707            0.408
#>  7            -0.707          0.408        0.707            0.408
#>  8            -0.707          0.408        0.707            0.408
#>  9            -0.707          0.408        0.707            0.408
#> 10            -0.707          0.408        0.707            0.408
#> # ℹ 334 more rows

The issue with this approach is that it pulls from
options() when it needs it instead of storing the information. This means that if you put this recipe in production you will need to set the option in the production environment to match that of the training environment.

To fix this issue we have given
step_dummy() an argument contrasts that work in much the same way. You simply specify the contrast you want and it will be stored in the object for easy deployment.

recipe(~species + island, penguins) |>
  step_dummy(
    all_nominal_predictors(), contrasts = "contr.poly") |>
  prep() |>
  bake(new_data = penguins)
#> # A tibble: 344 × 4
#>    species_Chinstrap species_Gentoo island_Dream island_Torgersen
#>                <dbl>          <dbl>        <dbl>            <dbl>
#>  1            -0.707          0.408        0.707            0.408
#>  2            -0.707          0.408        0.707            0.408
#>  3            -0.707          0.408        0.707            0.408
#>  4            -0.707          0.408        0.707            0.408
#>  5            -0.707          0.408        0.707            0.408
#>  6            -0.707          0.408        0.707            0.408
#>  7            -0.707          0.408        0.707            0.408
#>  8            -0.707          0.408        0.707            0.408
#>  9            -0.707          0.408        0.707            0.408
#> 10            -0.707          0.408        0.707            0.408
#> # ℹ 334 more rows
…
Several steps such as
step_pls() and
step_impute_bag() require the selection of more than just the affected columns.
step_pls() needs you to select an outcome variable and
step_impute_bag() needs you to select which variables to impute with, impute_with, if you don’t want to use all predictors. Previously these needed to be strings or use special selectors like
imp_vars(). You don’t have to do that anymore. You can now use tidyselect in these arguments too.

recipe(mpg ~ ., mtcars) |>
  step_pls(all_predictors(), outcome = mpg) |>
  prep() |>
  bake(new_data = mtcars)
#> # A tibble: 32 × 3
#>      mpg   PLS1   PLS2
#>    <dbl>  <dbl>  <dbl>
#>  1  21    0.693  0.895
#>  2  21    0.650  0.654
#>  3  22.8  2.78   0.378
#>  4  21.4  0.210 -0.368
#>  5  18.7 -1.95   0.845
#>  6  18.1  0.137 -0.624
#>  7  14.3 -2.77   0.364
#>  8  24.4  1.81  -1.30 
#>  9  22.8  2.12  -1.95 
#> 10  19.2  0.531 -1.51 
#> # ℹ 22 more rows

For arguments that allow for multiple selections now work with recipes selectors like
all_numeric_predictors() and
has_role().

recipe(mpg ~ ., mtcars) |>
  step_impute_bag(all_predictors(), impute_with = has_role("predictor")) |>
  prep() |>
  bake(new_data = mtcars)
#> # A tibble: 32 × 11
#>      cyl  disp    hp  drat    wt  qsec    vs    am  gear  carb   mpg
#>    <dbl> <dbl> <dbl> <dbl> <dbl> <dbl> <dbl> <dbl> <dbl> <dbl> <dbl>
#>  1     6  160    110  3.9   2.62  16.5     0     1     4     4  21  
#>  2     6  160    110  3.9   2.88  17.0     0     1     4     4  21  
#>  3     4  108     93  3.85  2.32  18.6     1     1     4     1  22.8
#>  4     6  258    110  3.08  3.22  19.4     1     0     3     1  21.4
#>  5     8  360    175  3.15  3.44  17.0     0     0     3     2  18.7
#>  6     6  225    105  2.76  3.46  20.2     1     0     3     1  18.1
#>  7     8  360    245  3.21  3.57  15.8     0     0     3     4  14.3
#>  8     4  147.    62  3.69  3.19  20       1     0     4     2  24.4
#>  9     4  141.    95  3.92  3.15  22.9     1     0     4     2  22.8
#> 10     6  168.   123  3.92  3.44  18.3     1     0     4     4  19.2
#> # ℹ 22 more rows
…
