tidyr 1.3.0
…
  geography = "block",
  state = "VT",
  county = "Washington",
  variables = "P1_001N",
  year = 2020
)
#> Getting data from the 2020 decennial Census
#> Using the PL 94-171 Redistricting Data summary file
#> Note: 2020 decennial Census data use differential privacy, a technique that
#> introduces errors into data to preserve respondent confidentiality.
#> ℹ Small counts should be interpreted with caution.
#> ℹ See https://www.census.gov/library/fact-sheets/2021/protecting-the-confidentiality-of-the-2020-census-redistricting-data.html for additional guidance.
#> This message is displayed once per session.
vt_census
#> # A tibble: 2,150 × 4
#>    GEOID           NAME                                           variable value
#>    <chr>           <chr>                                          <chr>    <dbl>
#>  1 500239555021014 Block 1014, Block Group 1, Census Tract 9555.… P1_001N     21
#>  2 500239555021015 Block 1015, Block Group 1, Census Tract 9555.… P1_001N     19
#>  3 500239555021016 Block 1016, Block Group 1, Census Tract 9555.… P1_001N      0
#>  4 500239555021017 Block 1017, Block Group 1, Census Tract 9555.… P1_001N      0
#>  5 500239555021018 Block 1018, Block Group 1, Census Tract 9555.… P1_001N     43
#>  6 500239555021019 Block 1019, Block Group 1, Census Tract 9555.… P1_001N     68
#>  7 500239555021020 Block 1020, Block Group 1, Census Tract 9555.… P1_001N     30
#>  8 500239555021021 Block 1021, Block Group 1, Census Tract 9555.… P1_001N      0
#>  9 500239555021022 Block 1022, Block Group 1, Census Tract 9555.… P1_001N     18
#> 10 500239555021023 Block 1023, Block Group 1, Census Tract 9555.… P1_001N     93
#> # … with 2,140 more rows

The GEOID column is made up of four components: a 2-digit state identifier, a 3-digit county identifier, a 6-digit tract identifier, and a 4-digit block identifier. We can use
separate_wider_position() to extract these into their own variables:

vt_census |>
  select(GEOID) |> 
  separate_wider_position(
    GEOID,
    widths = c(state = 2, county = 3, tract = 6, block = 4)
  )
#> # A tibble: 2,150 × 4
#>    state county tract  block
#>    <chr> <chr>  <chr>  <chr>
#>  1 50    023    955502 1014 
#>  2 50    023    955502 1015 
#>  3 50    023    955502 1016 
#>  4 50    023    955502 1017 
#>  5 50    023    955502 1018 
#>  6 50    023    955502 1019 
#>  7 50    023    955502 1020 
#>  8 50    023    955502 1021 
#>  9 50    023    955502 1022 
#> 10 50    023    955502 1023 
#> # … with 2,140 more rows

The name column contains this same information in a text form, with each component separated by a comma. We can use
separate_wider_delim() to break up this sort of data into individual variables:

vt_census |>
  select(NAME) |> 
  separate_wider_delim(
    NAME,
    delim = ", ",
    names = c("block", "block_group", "tract", "county", "state")
  )
#> # A tibble: 2,150 × 5
#>    block      block_group   tract                county            state  
#>    <chr>      <chr>         <chr>                <chr>             <chr>  
#>  1 Block 1014 Block Group 1 Census Tract 9555.02 Washington County Vermont
#>  2 Block 1015 Block Group 1 Census Tract 9555.02 Washington County Vermont
#>  3 Block 1016 Block Group 1 Census Tract 9555.02 Washington County Vermont
#>  4 Block 1017 Block Group 1 Census Tract 9555.02 Washington County Vermont
#>  5 Block 1018 Block Group 1 Census Tract 9555.02 Washington County Vermont
#>  6 Block 1019 Block Group 1 Census Tract 9555.02 Washington County Vermont
#>  7 Block 1020 Block Group 1 Census Tract 9555.02 Washington County Vermont
#>  8 Block 1021 Block Group 1 Census Tract 9555.02 Washington County Vermont
#>  9 Block 1022 Block Group 1 Census Tract 9555.02 Washington County Vermont
#> 10 Block 1023 Block Group 1 Census Tract 9555.02 Washington County Vermont
#> # … with 2,140 more rows
…
vt_census |>
  select(NAME) |> 
  separate_wider_regex(
    NAME,
    patterns = c(
      "Block ", block = "\\d+", ", ",
      "Block Group ", block_group = "\\d+", ", ",
      "Census Tract ", tract = "\\d+.\\d+", ", ",
      county = "[^,]+", ", ",
      state = ".*"
    )
  )
#> # A tibble: 2,150 × 5
#>    block block_group tract   county            state  
#>    <chr> <chr>       <chr>   <chr>             <chr>  
#>  1 1014  1           9555.02 Washington County Vermont
#>  2 1015  1           9555.02 Washington County Vermont
#>  3 1016  1           9555.02 Washington County Vermont
#>  4 1017  1           9555.02 Washington County Vermont
#>  5 1018  1           9555.02 Washington County Vermont
#>  6 1019  1           9555.02 Washington County Vermont
#>  7 1020  1           9555.02 Washington County Vermont
#>  8 1021  1           9555.02 Washington County Vermont
#>  9 1022  1           9555.02 Washington County Vermont
#> 10 1023  1           9555.02 Washington County Vermont
#> # … with 2,140 more rows
…
