dplyr 0.8.1
…
As we are phasing funs() out and prefer use of purrr-style lambda functions
in column wise verbs, we missed a few subtleties.
Specifically, lambdas can now refer to:
local variables (from the scope):

to_inch <- function(data, ...) {
  # the local variable `inch` can be used in the lambda
  inch <- 0.393701
  data %>% 
    mutate_at(vars(...), ~ . * inch)
}
iris %>% 
  as_tibble() %>% 
  to_inch(-Species)
#> # A tibble: 150 x 5
#>    Sepal.Length Sepal.Width Petal.Length Petal.Width Species
#>           <dbl>       <dbl>        <dbl>       <dbl> <fct>  
#>  1         2.01        1.38        0.551      0.0787 setosa 
#>  2         1.93        1.18        0.551      0.0787 setosa 
#>  3         1.85        1.26        0.512      0.0787 setosa 
#>  4         1.81        1.22        0.591      0.0787 setosa 
#>  5         1.97        1.42        0.551      0.0787 setosa 
#>  6         2.13        1.54        0.669      0.157  setosa 
#>  7         1.81        1.34        0.551      0.118  setosa 
#>  8         1.97        1.34        0.591      0.0787 setosa 
#>  9         1.73        1.14        0.551      0.0787 setosa 
#> 10         1.93        1.22        0.591      0.0394 setosa 
#> # … with 140 more rows

other columns of the data (from the data mask):

iris %>% 
  as_tibble() %>% 
  mutate_at(vars(starts_with("Sepal")), ~ . / Petal.Width)
#> # A tibble: 150 x 5
#>    Sepal.Length Sepal.Width Petal.Length Petal.Width Species
#>           <dbl>       <dbl>        <dbl>       <dbl> <fct>  
#>  1         25.5       17.5           1.4         0.2 setosa 
#>  2         24.5       15             1.4         0.2 setosa 
#>  3         23.5       16             1.3         0.2 setosa 
#>  4         23.0       15.5           1.5         0.2 setosa 
#>  5         25         18             1.4         0.2 setosa 
#>  6         13.5        9.75          1.7         0.4 setosa 
#>  7         15.3       11.3           1.4         0.3 setosa 
#>  8         25         17             1.5         0.2 setosa 
#>  9         22         14.5           1.4         0.2 setosa 
#> 10         49         31             1.5         0.1 setosa 
#> # … with 140 more rows
…
