dplyr backends: multidplyr 0.1.0, dtplyr 1.1.0, dbplyr 2.1.0
…
multidplyr creates multiple R processes and spreads your data out across them, providing a simple way to take advantage of multiple cores. To use it, start by creating a cluster of R processes and load dplyr on them:

library(multidplyr)
cluster <- new_cluster(4)
cluster_library(cluster, "dplyr")

Then spread data across those processes using
partition():

flight_dest <- nycflights13::flights %>% 
  group_by(dest) %>% 
  partition(cluster)
flight_dest
#> Source: party_df [336,776 x 19]
#> Groups: dest
#> Shards: 4 [81,594--86,548 rows]
#> 
#>    year month   day dep_time sched_dep_time dep_delay arr_time sched_arr_time
#>   <int> <int> <int>    <int>          <int>     <dbl>    <int>          <int>
#> 1  2013     1     1      544            545        -1     1004           1022
#> 2  2013     1     1      558            600        -2      923            937
#> 3  2013     1     1      559            600        -1      854            902
#> 4  2013     1     1      602            610        -8      812            820
#> 5  2013     1     1      602            605        -3      821            805
#> 6  2013     1     1      611            600        11      945            931
#> # … with 336,770 more rows, and 11 more variables: arr_delay <dbl>,
#> #   carrier <chr>, flight <int>, tailnum <chr>, origin <chr>, dest <chr>,
#> #   air_time <dbl>, distance <dbl>, hour <dbl>, minute <dbl>, time_hour <dttm>

The data is now spread across four “shards”, each consisting of around 80,000 rows. Generally, you’ll want to group the data before partitioning which ensures that all observations in one group end up on the same worker.
You can work with this party_df as if it was a data frame, but any work will be spread out across all the processes (which your operating system will usually allocate to different cores).

mean_delay <- flight_dest %>% 
  summarise(delay = mean(arr_delay, na.rm = TRUE), n = n()) %>% 
  filter(n > 25)
mean_delay
#> Source: party_df [96 x 3]
#> Shards: 4 [21--26 rows]
#> 
#>   dest  delay     n
#>   <chr> <dbl> <int>
#> 1 ABQ    4.38   254
#> 2 AUS    6.02  2439
#> 3 BQN    8.25   896
#> 4 BTV    8.95  2589
#> 5 BUF    8.95  4681
#> 6 CLE    9.18  4573
#> # … with 90 more rows
…
