Introducing vitals, a toolkit for evaluating LLM products in R
…
Analysis

To generate analysis-ready data frames, pass any number of Tasks to
vitals_bind():

tsk_eval <- 
  vitals_bind(
    claude = tsk_claude, 
    gpt = tsk_gpt, 
    gemini = tsk_gemini
  )

tsk_eval
#> # A tibble: 87 × 4
#>    task   id                          score metadata
#>    <chr>  <chr>                       <ord> <list>  
#>  1 claude after-stat-bar-heights      I     <tibble>
#>  2 claude conditional-grouped-summary P     <tibble>
#>  3 claude correlated-delays-reasoning I     <tibble>
#>  4 claude curl-http-get               C     <tibble>
#>  5 claude dropped-level-legend        I     <tibble>
#>  6 claude filter-multiple-conditions  C     <tibble>
#>  7 claude geocode-req-perform         P     <tibble>
#>  8 claude group-by-summarize-message  C     <tibble>
#>  9 claude grouped-filter-summarize    P     <tibble>
#> 10 claude grouped-geom-line           P     <tibble>
#> # ℹ 77 more rows
…
