vroom 1.0.0
…
Or rename columns

data <- vroom("flights.tsv", col_select = list(plane = tailnum, everything()))
#> Observations: 336,776
#> Variables: 19
#> chr  [ 4]: carrier, tailnum, origin, dest
#> dbl  [14]: year, month, day, dep_time, sched_dep_time, dep_delay, arr_time, sched_arr...
#> dttm [ 1]: time_hour
#> 
#> Call `spec()` for a copy-pastable column specification
#> Specify the column types with `col_types` to quiet this message
data
#> # A tibble: 336,776 x 19
#>    plane  year month   day dep_time sched_dep_time dep_delay arr_time
#>    <chr> <dbl> <dbl> <dbl>    <dbl>          <dbl>     <dbl>    <dbl>
#>  1 N142…  2013     1     1      517            515         2      830
#>  2 N242…  2013     1     1      533            529         4      850
#>  3 N619…  2013     1     1      542            540         2      923
#>  4 N804…  2013     1     1      544            545        -1     1004
#>  5 N668…  2013     1     1      554            600        -6      812
#>  6 N394…  2013     1     1      554            558        -4      740
#>  7 N516…  2013     1     1      555            600        -5      913
#>  8 N829…  2013     1     1      557            600        -3      709
#>  9 N593…  2013     1     1      557            600        -3      838
#> 10 N3AL…  2013     1     1      558            600        -2      753
#> # … with 336,766 more rows, and 11 more variables: sched_arr_time <dbl>,
#> #   arr_delay <dbl>, carrier <chr>, flight <dbl>, origin <chr>,
#> #   dest <chr>, air_time <dbl>, distance <dbl>, hour <dbl>, minute <dbl>,
#> #   time_hour <dttm>

Name repair

Often the names of columns in the original dataset are not ideal to work with.
vroom() uses the same
.name_repair
argument as tibble, so you can use one of the default name repair strategies or
provide a custom function. A great approach is to use the
janitor make_clean_names() function as the input.

vroom("flights.tsv", .name_repair = janitor::make_clean_names)
#> # A tibble: 336,776 x 19
#>     year month   day dep_time sched_dep_time dep_delay arr_time
#>    <dbl> <dbl> <dbl>    <dbl>          <dbl>     <dbl>    <dbl>
#>  1  2013     1     1      517            515         2      830
#>  2  2013     1     1      533            529         4      850
#>  3  2013     1     1      542            540         2      923
#>  4  2013     1     1      544            545        -1     1004
#>  5  2013     1     1      554            600        -6      812
#>  6  2013     1     1      554            558        -4      740
#>  7  2013     1     1      555            600        -5      913
#>  8  2013     1     1      557            600        -3      709
#>  9  2013     1     1      557            600        -3      838
#> 10  2013     1     1      558            600        -2      753
#> # … with 336,766 more rows, and 12 more variables: sched_arr_time <dbl>,
#> #   arr_delay <dbl>, carrier <chr>, flight <dbl>, tailnum <chr>,
#> #   origin <chr>, dest <chr>, air_time <dbl>, distance <dbl>, hour <dbl>,
#> #   minute <dbl>, time_hour <dttm>

vroom("flights.tsv", .name_repair = ~ janitor::make_clean_names(., case = "lower_camel"))
#> # A tibble: 336,776 x 19
#>     year month   day depTime schedDepTime depDelay arrTime schedArrTime
#>    <dbl> <dbl> <dbl>   <dbl>        <dbl>    <dbl>   <dbl>        <dbl>
#>  1  2013     1     1     517          515        2     830          819
#>  2  2013     1     1     533          529        4     850          830
#>  3  2013     1     1     542          540        2     923          850
#>  4  2013     1     1     544          545       -1    1004         1022
#>  5  2013     1     1     554          600       -6     812          837
#>  6  2013     1     1     554          558       -4     740          728
#>  7  2013     1     1     555          600       -5     913          854
#>  8  2013     1     1     557          600       -3     709          723
#>  9  2013     1     1     557          600       -3     838          846
#> 10  2013     1     1     558          600       -2     753          745
#> # … with 336,766 more rows, and 11 more variables: arrDelay <dbl>,
#> #   carrier <chr>, flight <dbl>, tailnum <chr>, origin <chr>, dest <chr>,
#> #   airTime <dbl>, distance <dbl>, hour <dbl>, minute <dbl>,
#> #   timeHour <dttm>
…
