tune 0.1.1
…
Not bad but it could be improved in a few ways:
Both tuning parameters are generated on log scales. The data are shown above in the natural units and the data at the low end of the scale gets smashed together.

We could show its parameter label (e.g. “Radial Basis Function sigma”) when no parameter ID is given.

What happens when a regular (i.e. factorial) grid is used?

grid <- 
  svm_mod %>% 
  parameters() %>% 
  grid_regular(levels = c(3, 12))

grid

## # A tibble: 36 x 2
##         cost `kernel parameter`
##        <dbl>              <dbl>
##  1  0.000977     0.0000000001  
##  2  0.177        0.0000000001  
##  3 32            0.0000000001  
##  4  0.000977     0.000000000811
##  5  0.177        0.000000000811
##  6 32            0.000000000811
##  7  0.000977     0.00000000658 
##  8  0.177        0.00000000658 
##  9 32            0.00000000658 
## 10  0.000977     0.0000000534  
## # … with 26 more rows
…
best_values <- select_best(regular_grid, metric = "rmse")
best_values

## # A tibble: 1 x 3
##    cost `kernel parameter` .config
##   <dbl>              <dbl> <chr>  
## 1    32             0.0152 Model30

holdout_predictions <- 
  regular_grid %>% 
  collect_predictions(parameters = best_values)
holdout_predictions

## # A tibble: 224 x 7
##    id     .pred  .row  cost `kernel parameter` ridership .config
##    <chr>  <dbl> <int> <dbl>              <dbl>     <dbl> <chr>  
##  1 Slice1 17.8   5461    32             0.0152     19.6  Model30
##  2 Slice1 18.9   5462    32             0.0152     20.0  Model30
##  3 Slice1 17.5   5463    32             0.0152     20.4  Model30
##  4 Slice1  8.88  5464    32             0.0152     20.4  Model30
##  5 Slice1  3.03  5465    32             0.0152     20.1  Model30
##  6 Slice1  6.07  5466    32             0.0152      4.78 Model30
##  7 Slice1  4.48  5467    32             0.0152      3.26 Model30
##  8 Slice1 12.6   5468    32             0.0152     19.3  Model30
##  9 Slice1 15.6   5469    32             0.0152     19.3  Model30
## 10 Slice1 15.4   5470    32             0.0152     19.9  Model30
## # … with 214 more rows
…
