Q1 2023 tidymodels digest
…
pca_normal <- recipe(Sale_Price ~ ., data = ames) |>
  step_dummy(all_nominal_predictors()) |>
  step_pca(all_numeric_predictors(), num_comp = 3)

pca_truncated <- recipe(Sale_Price ~ ., data = ames) |>
  step_dummy(all_nominal_predictors()) |>
  step_pca_truncated(all_numeric_predictors(), num_comp = 3)

tictoc::tic()
prep(pca_normal) |> bake(ames)
#> # A tibble: 2,930 × 4
#>    Sale_Price     PC1    PC2   PC3
#>         <int>   <dbl>  <dbl> <dbl>
#>  1     215000 -31793.  4151. -197.
#>  2     105000 -12198.  -611. -524.
#>  3     172000 -14911.  -265. 7568.
#>  4     244000 -12072. -1813.  918.
#>  5     189900 -14418.  -345. -302.
#>  6     195500 -10704. -1367. -204.
#>  7     213500  -5858. -2805.  114.
#>  8     191500  -5932. -2762.  131.
#>  9     236500  -6368. -2862.  325.
#> 10     189000  -8368. -2219.  126.
#> # ℹ 2,920 more rows
tictoc::toc()
#> 0.782 sec elapsed

tictoc::tic()
prep(pca_truncated) |> bake(ames)
#> # A tibble: 2,930 × 4
#>    Sale_Price     PC1    PC2   PC3
#>         <int>   <dbl>  <dbl> <dbl>
#>  1     215000 -31793.  4151. -197.
#>  2     105000 -12198.  -611. -524.
#>  3     172000 -14911.  -265. 7568.
#>  4     244000 -12072. -1813.  918.
#>  5     189900 -14418.  -345. -302.
#>  6     195500 -10704. -1367. -204.
#>  7     213500  -5858. -2805.  114.
#>  8     191500  -5932. -2762.  131.
#>  9     236500  -6368. -2862.  325.
#> 10     189000  -8368. -2219.  126.
#> # ℹ 2,920 more rows
…
