discrim 0.0.1
…
data("parabolic", package = "rsample")
#> Warning in data("parabolic", package = "rsample"): data set 'parabolic' not
#> found
parabolic
#> # A tibble: 500 x 3
#>        X1     X2 class 
#>     <dbl>  <dbl> <fct> 
#>  1  3.29   1.66  Class1
#>  2  1.47   0.414 Class2
#>  3  1.66   0.791 Class2
#>  4  1.60   0.276 Class2
#>  5  2.17   3.17  Class1
#>  6  1.94   3.83  Class1
#>  7 -0.588 -0.977 Class2
#>  8 -0.951  1.40  Class1
#>  9  0.275  0.370 Class2
#> 10 -1.13  -1.14  Class1
#> # … with 490 more rows
…
This is pretty close to the true simulated boundary, which is parabolic in nature.
The test sets results are:

probs_te <- 
  predict(rda_fit, data_te, type = "prob") %>% 
  bind_cols(data_te %>% select(class))
probs_te
#> # A tibble: 166 x 3
#>    .pred_Class1 .pred_Class2 class 
#>           <dbl>        <dbl> <fct> 
#>  1        0.851     0.149    Class1
#>  2        0.205     0.795    Class2
#>  3        1.000     0.000339 Class1
#>  4        0.326     0.674    Class2
#>  5        0.377     0.623    Class2
#>  6        0.202     0.798    Class2
#>  7        0.333     0.667    Class1
#>  8        0.472     0.528    Class1
#>  9        0.979     0.0210   Class1
#> 10        0.166     0.834    Class2
#> # … with 156 more rows
…
