rules 0.0.1
…
predict(cubist_fit, car_te %>% select(-Price))
#> # A tibble: 201 x 1
#>    .pred
#>    <dbl>
#>  1  4.32
#>  2  4.49
#>  3  4.54
#>  4  4.54
#>  5  4.43
#>  6  4.43
#>  7  4.46
#>  8  4.44
#>  9  4.37
#> 10  4.48
#> # … with 191 more rows
…
