Q1 2022 tidymodels digest
…
The newest
textrecipes release provides support for feature hashing, a feature engineering approach that can be helpful when working with high cardinality categorical data or text. A hashing function takes an input of variable size and maps it to an output of fixed size. Hashing functions are commonly used in cryptography and databases, and we can create a hash in R using rlang::hash():

library(textrecipes)
data(Sacramento)
set.seed(123)
sac_split <- initial_split(Sacramento, strata = price)
sac_train <- training(sac_split)
sac_test  <- testing(sac_split)

tibble(sac_train) %>%
  mutate(zip_hash = map_chr(zip, rlang::hash)) %>%
  select(zip, zip_hash)
#> # A tibble: 698 × 2
#>    zip    zip_hash                        
#>    <fct>  <chr>                           
#>  1 z95838 32cbb7d319c97f062be64075c2ae6c07
#>  2 z95815 55d08d816f0d2e9ec16af15239826e91
#>  3 z95824 235b72b9a37a6154552498eb3f90e9e3
#>  4 z95841 d973597ab5cc48a0dfe54b84a91249e1
#>  5 z95842 c44537f2eecd51707b19e69027228a85
#>  6 z95820 e1b86cbed49c029f9fa25bba94ede11e
#>  7 z95670 60ee71387789bb8c58748e4632089cc4
#>  8 z95838 32cbb7d319c97f062be64075c2ae6c07
#>  9 z95815 55d08d816f0d2e9ec16af15239826e91
#> 10 z95822 8e212bdf9650ef39a1634e6e18529834
#> # … with 688 more rows

The variable zip in this data on home sales in Sacramento, CA is of
“high cardinality” (as ZIP codes often are) with 67 unique values. When we hash() the ZIP code, we get out, well, a hash value, and we will always get the same hash value for the same input (as you can see for ZIP code 95838 here). We can choose the fixed size of our hashed output to reduce the number of possible values to whatever we want; it turns out this works well in a lot of situations.
Let’s use a hashing algorithm like this one (with an output size of 16) to create binary indicator variables for this high cardinality zip:

hash_rec <- 
  recipe(price ~ zip + beds + baths, data = sac_train) %>%
  step_dummy_hash(zip, signed = FALSE, num_terms = 16L)

prep(hash_rec) %>% bake(new_data = NULL)
#> # A tibble: 698 × 19
#>    dummyhash_zip_01 dummyhash_zip_02 dummyhash_zip_03 dummyhash_zip_04
#>               <dbl>            <dbl>            <dbl>            <dbl>
#>  1                0                0                0                0
#>  2                0                1                0                0
#>  3                0                0                1                0
#>  4                1                0                0                0
#>  5                0                0                0                0
#>  6                0                0                0                0
#>  7                0                1                0                0
#>  8                0                0                0                0
#>  9                0                1                0                0
#> 10                0                0                0                0
#> # … with 688 more rows, and 15 more variables:
#> #   dummyhash_zip_05 <dbl>, dummyhash_zip_06 <dbl>,
#> #   dummyhash_zip_07 <dbl>, dummyhash_zip_08 <dbl>,
#> #   dummyhash_zip_09 <dbl>, dummyhash_zip_10 <dbl>,
#> #   dummyhash_zip_11 <dbl>, dummyhash_zip_12 <dbl>,
#> #   dummyhash_zip_13 <dbl>, dummyhash_zip_14 <dbl>,
#> #   dummyhash_zip_15 <dbl>, dummyhash_zip_16 <dbl>, beds <int>, …
…
