orbital 0.4.0
…
This object contains all the information that is needed to produce predictions. Which we can produce with
predict().

preds <- predict(orbital_obj, penguins)
preds
#> # A tibble: 344 × 3
#>    .pred_class .pred_Adelie .pred_not_Adelie
#>    <chr>              <dbl>            <dbl>
#>  1 Adelie             0.845            0.155
#>  2 Adelie             0.845            0.155
#>  3 Adelie             0.845            0.155
#>  4 not_Adelie         0.291            0.709
#>  5 Adelie             0.845            0.155
#>  6 Adelie             0.845            0.155
#>  7 Adelie             0.845            0.155
#>  8 Adelie             0.845            0.155
#>  9 Adelie             0.845            0.155
#> 10 Adelie             0.845            0.155
#> # ℹ 334 more rows
…
