infer 1.0.0
…
Each row is an individual survey response, containing some basic demographic information on the respondent as well as some additional variables. See
?gss for more information on the variables included and their source.
specify(): Specifying response (and explanatory) variables

The
specify() function can be used to specify which of the variables in the dataset you’re interested in. If you’re only interested in, say, the age of the respondents, you might write:

gss %>%
  specify(response = age)
#> Response: age (numeric)
#> # A tibble: 500 × 1
#>      age
#>    <dbl>
#>  1    36
#>  2    34
#>  3    24
#>  4    42
#>  5    31
#>  6    32
#>  7    48
#>  8    36
#>  9    30
#> 10    33
#> # … with 490 more rows
…
gss %>%
  specify(response = age) %>%
  class()
#> [1] "infer"      "tbl_df"     "tbl"        "data.frame"

We can see that the infer class has been appended on top of the dataframe classes–this new class stores some extra metadata.
If you’re interested in two variables–age and partyid, for example–you can
specify() their relationship in one of two (equivalent) ways:

# as a formula
gss %>%
  specify(age ~ partyid)
#> Response: age (numeric)
#> Explanatory: partyid (factor)
#> # A tibble: 500 × 2
#>      age partyid
#>    <dbl> <fct>  
#>  1    36 ind    
#>  2    34 rep    
#>  3    24 ind    
#>  4    42 ind    
#>  5    31 rep    
#>  6    32 rep    
#>  7    48 dem    
#>  8    36 ind    
#>  9    30 rep    
#> 10    33 dem    
#> # … with 490 more rows

# with the named arguments
gss %>%
  specify(response = age, explanatory = partyid)
#> Response: age (numeric)
#> Explanatory: partyid (factor)
#> # A tibble: 500 × 2
#>      age partyid
#>    <dbl> <fct>  
#>  1    36 ind    
#>  2    34 rep    
#>  3    24 ind    
#>  4    42 ind    
#>  5    31 rep    
#>  6    32 rep    
#>  7    48 dem    
#>  8    36 ind    
#>  9    30 rep    
#> 10    33 dem    
#> # … with 490 more rows

hypothesize(): Declaring the null hypothesis

The next step in an infer pipeline is often to declare a null hypothesis using
hypothesize(). The first step is to supply one of “independence” or “point” to the null argument. If your null hypothesis assumes independence between two variables, then this is all you need to supply to
hypothesize():

gss %>%
  specify(college ~ partyid, success = "degree") %>%
  hypothesize(null = "independence")
#> Response: college (factor)
#> Explanatory: partyid (factor)
#> Null Hypothesis: independence
#> # A tibble: 500 × 2
#>    college   partyid
#>    <fct>     <fct>  
#>  1 degree    ind    
#>  2 no degree rep    
#>  3 degree    ind    
#>  4 no degree ind    
#>  5 degree    rep    
#>  6 no degree rep    
#>  7 no degree dem    
#>  8 degree    ind    
#>  9 degree    rep    
#> 10 no degree dem    
#> # … with 490 more rows

If you’re doing inference on a point estimate, you will also need to provide one of p (the true proportion of successes, between 0 and 1), mu (the true mean), med (the true median), or sigma (the true standard deviation). For instance, if the null hypothesis is that the mean number of hours worked per week in our population is 40, we would write:

gss %>%
  specify(response = hours) %>%
  hypothesize(null = "point", mu = 40)
#> Response: hours (numeric)
#> Null Hypothesis: point
#> # A tibble: 500 × 1
#>    hours
#>    <dbl>
#>  1    50
#>  2    31
#>  3    40
#>  4    40
#>  5    40
#>  6    53
#>  7    32
#>  8    20
#>  9    40
#> 10    40
#> # … with 490 more rows
…
gss %>%
  specify(response = hours) %>%
  hypothesize(null = "point", mu = 40) %>%
  generate(reps = 1000, type = "bootstrap")
#> Response: hours (numeric)
#> Null Hypothesis: point
#> # A tibble: 500,000 × 2
#> # Groups:   replicate [1,000]
#>    replicate hours
#>        <int> <dbl>
#>  1         1 46.6 
#>  2         1 37.6 
#>  3         1 58.6 
#>  4         1 38.6 
#>  5         1 28.6 
#>  6         1 35.6 
#>  7         1 43.6 
#>  8         1  6.62
#>  9         1 48.6 
#> 10         1 53.6 
#> # … with 499,990 more rows

In the above example, we take 1000 bootstrap samples to form our null distribution.
To generate a null distribution for the independence of two variables, we could randomly reshuffle the pairings of explanatory and response variables to break any existing association. For instance, to generate 1000 replicates that can be used to create a null distribution under the assumption that political party affiliation is not affected by age:

gss %>%
  specify(partyid ~ age) %>%
  hypothesize(null = "independence") %>%
  generate(reps = 1000, type = "permute")
#> Response: partyid (factor)
#> Explanatory: age (numeric)
#> Null Hypothesis: independence
#> # A tibble: 500,000 × 3
#> # Groups:   replicate [1,000]
#>    partyid   age replicate
#>    <fct>   <dbl>     <int>
#>  1 rep        36         1
#>  2 dem        34         1
#>  3 dem        24         1
#>  4 dem        42         1
#>  5 ind        31         1
#>  6 ind        32         1
#>  7 ind        48         1
#>  8 dem        36         1
#>  9 ind        30         1
#> 10 ind        33         1
#> # … with 499,990 more rows

calculate(): Calculating summary statistics

calculate() calculates summary statistics from the output of infer core functions. The function, for one, takes in a stat argument, which is currently one of "mean", "median", "sum", "sd", "prop", "count", "diff in means", "diff in medians", "diff in props", "Chisq", "F", "t", "z", "slope", or "correlation". For example, continuing our example above to calculate the null distribution of mean hours worked per week:

gss %>%
  specify(response = hours) %>%
  hypothesize(null = "point", mu = 40) %>%
  generate(reps = 1000, type = "bootstrap") %>%
  calculate(stat = "mean")
#> Response: hours (numeric)
#> Null Hypothesis: point
#> # A tibble: 1,000 × 2
#>    replicate  stat
#>        <int> <dbl>
#>  1         1  38.6
#>  2         2  40.4
#>  3         3  38.9
#>  4         4  40.0
#>  5         5  39.7
#>  6         6  40.0
#>  7         7  40.9
#>  8         8  40.4
#>  9         9  41.7
#> 10        10  39.8
#> # … with 990 more rows
…
Note that the function returns the model coefficients as estimate rather than their associated $t$-statistics as stat.
If passed a
generate()d object, the model will be fitted to each replicate.

gss %>%
  specify(hours ~ age + college) %>%
  hypothesize(null = "independence") %>%
  generate(reps = 100, type = "permute") %>%
  fit()
#> # A tibble: 300 × 3
#> # Groups:   replicate [100]
#>    replicate term          estimate
#>        <int> <chr>            <dbl>
#>  1         1 intercept     41.5    
#>  2         1 age            0.0139 
#>  3         1 collegedegree -1.88   
#>  4         2 intercept     40.6    
#>  5         2 age           -0.00221
#>  6         2 collegedegree  2.64   
#>  7         3 intercept     40.5    
#>  8         3 age            0.0196 
#>  9         3 collegedegree  0.251  
#> 10         4 intercept     39.3    
#> # … with 290 more rows

If type = "permute", a set of unquoted column names in the data to permute (independently of each other) can be passed via the variables argument to generate. It defaults to only the response variable.

gss %>%
  specify(hours ~ age + college) %>%
  hypothesize(null = "independence") %>%
  generate(reps = 100, type = "permute", variables = c(age, college)) %>%
  fit()
#> # A tibble: 300 × 3
#> # Groups:   replicate [100]
#>    replicate term          estimate
#>        <int> <chr>            <dbl>
#>  1         1 intercept      44.4   
#>  2         1 age            -0.0774
#>  3         1 collegedegree   0.366 
#>  4         2 intercept      40.7   
#>  5         2 age             0.0124
#>  6         2 collegedegree   0.613 
#>  7         3 intercept      40.0   
#>  8         3 age             0.0306
#>  9         3 collegedegree   0.496 
#> 10         4 intercept      40.9   
#> # … with 290 more rows
…
