hardhat 0.1.0
…
Setup

One exciting feature included with hardhat is create_modeling_package(). Built on top of usethis::create_package(), this allows you to quickly set up a new modeling package with pre-generated infrastructure in place for an S3 generic to go with your user-facing modeling function. It also includes a predict() method and other best practices outlined further in
Conventions for R Modeling Packages. If you’ve never created a modeling package before, this is a great place to start so you can focus more on the implementation rather than the details around package setup.
Preprocessing

When building a model, there are often preprocessing steps that you perform on the training set before fitting. Take this biomass dataset for example. The goal is to predict the HHV for each sample, an acronym for the Higher Heating Value, defined as the amount of heat released by an object during combustion. To do this, you might use the numeric columns containing the amounts of different atomic elements that make up each sample.

training <- biomass[biomass$dataset == "Training",]
testing <- biomass[biomass$dataset == "Testing",]

training
#> # A tibble: 456 x 8
#>    sample                 dataset  carbon hydrogen oxygen nitrogen sulfur   HHV
#>    <chr>                  <chr>     <dbl>    <dbl>  <dbl>    <dbl>  <dbl> <dbl>
#>  1 Akhrot Shell           Training   49.8     5.64   42.9     0.41   0     20.0
#>  2 Alabama Oak Wood Waste Training   49.5     5.7    41.3     0.2    0     19.2
#>  3 Alder                  Training   47.8     5.8    46.2     0.11   0.02  18.3
#>  4 Alfalfa                Training   45.1     4.97   35.6     3.3    0.16  18.2
#>  5 Alfalfa Seed Straw     Training   46.8     5.4    40.7     1      0.02  18.4
#>  6 Alfalfa Stalks         Training   45.4     5.75   40.2     2.04   0.1   18.5
#>  7 Alfalfa Stems          Training   47.2     5.99   38.2     2.68   0.2   18.7
#>  8 Alfalfa Straw          Training   45.7     5.7    39.7     1.7    0.2   18.3
#>  9 Almond                 Training   48.8     5.5    40.9     0.8    0     18.6
#> 10 Almond Hull            Training   47.1     5.9    40       1.2    0.1   18.9
#> # … with 446 more rows
…
names(processed_formula)
#> [1] "predictors" "outcomes"   "blueprint"  "extras"
names(processed_recipe)
#> [1] "predictors" "outcomes"   "blueprint"  "extras"

predictors is a data frame of the preprocessed predictors.

outcomes is a data frame of the preprocessed outcomes.

blueprint is the best part of hardhat. It records the preprocessing activities, so that it can replay them on top of new data that needs to be preprocessed at prediction time.

extras is a data frame of any “extra” columns in your data set that aren’t considered predictors or outcomes. These might be offsets in a formula, or extra roles from a recipe.

processed_recipe$predictors
#> # A tibble: 456 x 1
#>     carbon
#>      <dbl>
#>  1  0.140 
#>  2  0.110 
#>  3 -0.0513
#>  4 -0.313 
#>  5 -0.153 
#>  6 -0.284 
#>  7 -0.114 
#>  8 -0.255 
#>  9  0.0428
#> 10 -0.120 
#> # … with 446 more rows

processed_recipe$outcomes
#> # A tibble: 456 x 1
#>      HHV
#>    <dbl>
#>  1  20.0
#>  2  19.2
#>  3  18.3
#>  4  18.2
#>  5  18.4
#>  6  18.5
#>  7  18.7
#>  8  18.3
#>  9  18.6
#> 10  18.9
#> # … with 446 more rows
…
Predicting

Once you’ve used the preprocessed data to fit your model, you’ll probably want to make predictions on a test set. To do this, you’ll need to reapply any preprocessing that you did on the training set to the test set as well. hardhat makes this easy with hardhat::forge(). forge() takes a data frame of new predictors, as well as a blueprint that was created in the call to mold(), and reapplies the correct preprocessing for you. Again, no matter what the original preprocessing method was, the output is consistent and predictable.

forged_formula <- forge(testing, processed_formula$blueprint)
forged_recipe <- forge(testing, processed_recipe$blueprint)

names(forged_formula)
#> [1] "predictors" "outcomes"   "extras"
names(forged_recipe)
#> [1] "predictors" "outcomes"   "extras"

forged_recipe$predictors
#> # A tibble: 80 x 1
#>     carbon
#>      <dbl>
#>  1 -0.193 
#>  2 -0.490 
#>  3 -0.543 
#>  4 -0.188 
#>  5  0.0390
#>  6 -0.390 
#>  7 -0.904 
#>  8 -0.601 
#>  9 -1.84  
#> 10 -1.97  
#> # … with 70 more rows
…
