…
[Desirability functions](https://scholar.google.com/scholar?hl=en&as_sdt=0%2C7&q=%22desirability+functions%22) are tools that can be used to rank or optimize multiple characteristics at once. They are intuitive and easy to use. There are a few R packages that implement them, including [desirability](http://cran.r-project.org/package=desirability) and [desiR](http://cran.r-project.org/package=desiR). 

We have a new one, [desirability2](http://cran.r-project.org/package=desirability2), with an interface conducive to being used in-line via dplyr pipelines. 

Let's demonstrate by looking at an application. Suppose we created a classification model and produced multiple metrics on how well it classifies new data. We measured the area under the ROC curve and the binomial log-loss statistic in this example. There are about 300 different model configurations that we investigated via tuning. 

Looking for the "best" results, the two metrics give us different answers: 


```r
classification_results
```

```
## # A tibble: 298 × 5
##    mixture penalty mn_log_loss roc_auc num_features
##      <dbl>   <dbl>       <dbl>   <dbl>        <int>
##  1       0  0.1          0.199   0.869          211
##  2       0  0.0788       0.196   0.870          211
##  3       0  0.0621       0.194   0.871          211
##  4       0  0.0489       0.192   0.872          211
##  5       0  0.0386       0.191   0.873          211
##  6       0  0.0304       0.190   0.873          211
##  7       0  0.0240       0.188   0.874          211
##  8       0  0.0189       0.188   0.874          211
##  9       0  0.0149       0.187   0.874          211
## 10       0  0.0117       0.186   0.874          211
## # ℹ 288 more rows
```
…
