dplyr 1.1.0 is coming soon
…
With this set of employees:

employees <- tibble(
  name = wakefield::name(100),
  birthday = date_parse("2022-01-01") + (sample(365, 100, replace = TRUE) - 1)
)

employees
#> # A tibble: 100 × 2
#>    name       birthday  
#>    <variable> <date>    
#>  1 Seager     2022-08-26
#>  2 Nathion    2022-10-04
#>  3 Sametra    2022-06-13
#>  4 Netty      2022-05-12
#>  5 Yalissa    2022-05-28
#>  6 Mirai      2022-08-20
#>  7 Toyoko     2022-08-23
#>  8 Earlene    2022-04-21
#>  9 Abbegayle  2022-01-27
#> 10 Valyssa    2022-03-06
#> # … with 90 more rows

One way to start approaching this problem is to look for the party that happened directly before each birthday. You can do this with an inequality join:

employees |>
  left_join(parties, join_by(birthday >= party))
#> # A tibble: 251 × 4
#>    name       birthday       q party     
#>    <variable> <date>     <int> <date>    
#>  1 Seager     2022-08-26     1 2022-01-10
#>  2 Seager     2022-08-26     2 2022-04-04
#>  3 Seager     2022-08-26     3 2022-07-11
#>  4 Nathion    2022-10-04     1 2022-01-10
#>  5 Nathion    2022-10-04     2 2022-04-04
#>  6 Nathion    2022-10-04     3 2022-07-11
#>  7 Nathion    2022-10-04     4 2022-10-03
#>  8 Sametra    2022-06-13     1 2022-01-10
#>  9 Sametra    2022-06-13     2 2022-04-04
#> 10 Netty      2022-05-12     1 2022-01-10
#> # … with 241 more rows

This looks like a good start, but we’ve assigned people with birthdays later in the year to multiple parties. We can restrict this to only the party that is closest to the employee’s birthday by using a rolling join. Rolling joins are activated by wrapping an inequality in closest().

closest <- employees |>
  left_join(parties, join_by(closest(birthday >= party)))

closest
#> # A tibble: 100 × 4
#>    name       birthday       q party     
#>    <variable> <date>     <int> <date>    
#>  1 Seager     2022-08-26     3 2022-07-11
#>  2 Nathion    2022-10-04     4 2022-10-03
#>  3 Sametra    2022-06-13     2 2022-04-04
#>  4 Netty      2022-05-12     2 2022-04-04
#>  5 Yalissa    2022-05-28     2 2022-04-04
#>  6 Mirai      2022-08-20     3 2022-07-11
#>  7 Toyoko     2022-08-23     3 2022-07-11
#>  8 Earlene    2022-04-21     2 2022-04-04
#>  9 Abbegayle  2022-01-27     1 2022-01-10
#> 10 Valyssa    2022-03-06     1 2022-01-10
#> # … with 90 more rows
…
Now that we have 4 distinct ranges of dates to work with, we’ll use an overlap join to figure out which range each birthday fell
between(). Since we know that each birthday should be matched to exactly one party, we’ll also take this chance to set multiple, a new argument to the join functions that allows you to optionally "error" if a birthday is matched to multiple parties.

employees |>
  left_join(
    parties, 
    join_by(between(birthday, start, end)),
    multiple = "error"
  )
#> # A tibble: 100 × 6
#>    name       birthday       q party      start      end       
#>    <variable> <date>     <int> <date>     <date>     <date>    
#>  1 Seager     2022-08-26     3 2022-07-11 2022-07-01 2022-09-30
#>  2 Nathion    2022-10-04     4 2022-10-03 2022-10-01 2022-12-31
#>  3 Sametra    2022-06-13     2 2022-04-04 2022-04-01 2022-06-30
#>  4 Netty      2022-05-12     2 2022-04-04 2022-04-01 2022-06-30
#>  5 Yalissa    2022-05-28     2 2022-04-04 2022-04-01 2022-06-30
#>  6 Mirai      2022-08-20     3 2022-07-11 2022-07-01 2022-09-30
#>  7 Toyoko     2022-08-23     3 2022-07-11 2022-07-01 2022-09-30
#>  8 Earlene    2022-04-21     2 2022-04-04 2022-04-01 2022-06-30
#>  9 Abbegayle  2022-01-27     1 2022-01-10 2022-01-01 2022-03-31
#> 10 Valyssa    2022-03-06     1 2022-01-10 2022-01-01 2022-03-31
#> # … with 90 more rows
…
In this case, row 1 of df1 matched both rows 1 and 3 of df2, so the output has 4 rows rather than df1's 3. While this is standard SQL behavior, community feedback has shown that many people don’t expect this, and a number of people were horrified to learn that this was even possible! Because of this, we’ve made this case a warning by default, which you can silence with multiple = "all".
arrange() improvements with character vectors

arrange() now uses a new custom backend for generating the ordering. This generally improves performance, but it is especially apparent with character vectors.

# 10,000 random strings, sampled up to 1,000,000 rows
dictionary <- stringi::stri_rand_strings(10000, length = 10, pattern = "[a-z]")
str <- tibble(x = sample(dictionary, size = 1e6, replace = TRUE))
str
#> # A tibble: 1,000,000 × 1
#>    x         
#>    <chr>     
#>  1 btjgpowbav
#>  2 jrddujrxwt
#>  3 ofgkybvsoo
#>  4 dzyxfvwktu
#>  5 qobgfmkgof
#>  6 rmzjvtnpbf
#>  7 jxrqgxouqg
#>  8 empcmhnlqq
#>  9 nwfgauiurp
#> 10 hdswclaxys
#> # … with 999,990 more rows
…
