Closing out our year with a Q4 2021 tidymodels update
…
library(gapminder)

year_split <-
  make_splits(
    gapminder %>% filter(year <= 2000),
    gapminder %>% filter(year > 2000)
  )

year_split
#> <Analysis/Assess/Total>
#> <1420/284/1704>
testing(year_split)
#> # A tibble: 284 × 6
#>    country     continent  year lifeExp      pop gdpPercap
#>    <fct>       <fct>     <int>   <dbl>    <int>     <dbl>
#>  1 Afghanistan Asia       2002    42.1 25268405      727.
#>  2 Afghanistan Asia       2007    43.8 31889923      975.
#>  3 Albania     Europe     2002    75.7  3508512     4604.
#>  4 Albania     Europe     2007    76.4  3600523     5937.
#>  5 Algeria     Africa     2002    71.0 31287142     5288.
#>  6 Algeria     Africa     2007    72.3 33333216     6223.
#>  7 Angola      Africa     2002    41.0 10866106     2773.
#>  8 Angola      Africa     2007    42.7 12420476     4797.
#>  9 Argentina   Americas   2002    74.3 38331121     8798.
#> 10 Argentina   Americas   2007    75.3 40301927    12779.
#> # … with 274 more rows
…
