…
probably comes with a few data sets. For most of the examples in this post,
we will use `segment_logistic`. It is an example data set that contains
predictions, and their probabilities. `Class` contains the outcome of 
"good" and "poor", `.pred_good` contains the probability that the event is "good". 


```r
segment_logistic
```

```
## # A tibble: 1,010 × 3
##    .pred_poor .pred_good Class
##  *      <dbl>      <dbl> <fct>
##  1    0.986      0.0142  poor 
##  2    0.897      0.103   poor 
##  3    0.118      0.882   good 
##  4    0.102      0.898   good 
##  5    0.991      0.00914 poor 
##  6    0.633      0.367   good 
##  7    0.770      0.230   good 
##  8    0.00842    0.992   good 
##  9    0.995      0.00458 poor 
## 10    0.765      0.235   poor 
## # … with 1,000 more rows
```
…
tuned_model
```

```
## # Tuning results
## # 10-fold cross-validation repeated 3 times 
## # A tibble: 30 × 6
##    splits           id      id2    .metrics         .notes           .predicti…¹
##    <list>           <chr>   <chr>  <list>           <list>           <list>     
##  1 <split [450/50]> Repeat1 Fold01 <tibble [8 × 5]> <tibble [0 × 3]> <tibble>   
##  2 <split [450/50]> Repeat1 Fold02 <tibble [8 × 5]> <tibble [0 × 3]> <tibble>   
##  3 <split [450/50]> Repeat1 Fold03 <tibble [8 × 5]> <tibble [0 × 3]> <tibble>   
##  4 <split [450/50]> Repeat1 Fold04 <tibble [8 × 5]> <tibble [0 × 3]> <tibble>   
##  5 <split [450/50]> Repeat1 Fold05 <tibble [8 × 5]> <tibble [0 × 3]> <tibble>   
##  6 <split [450/50]> Repeat1 Fold06 <tibble [8 × 5]> <tibble [0 × 3]> <tibble>   
##  7 <split [450/50]> Repeat1 Fold07 <tibble [8 × 5]> <tibble [0 × 3]> <tibble>   
##  8 <split [450/50]> Repeat1 Fold08 <tibble [8 × 5]> <tibble [0 × 3]> <tibble>   
##  9 <split [450/50]> Repeat1 Fold09 <tibble [8 × 5]> <tibble [0 × 3]> <tibble>   
## 10 <split [450/50]> Repeat1 Fold10 <tibble [8 × 5]> <tibble [0 × 3]> <tibble>   
## # … with 20 more rows, and abbreviated variable name ¹​.predictions
```
…
```r
model <- glm(Class ~ .pred_good, segment_logistic, family = "binomial")

preds <- predict(model, segment_logistic, type = "response")
  
combined <- bind_rows(
  mutate(segment_logistic, source = "original"), 
  mutate(segment_logistic, .pred_good = 1 - preds, source = "glm")
  )

combined 
```

```
## # A tibble: 2,020 × 4
##    .pred_poor .pred_good Class source  
##         <dbl>      <dbl> <fct> <chr>   
##  1    0.986      0.0142  poor  original
##  2    0.897      0.103   poor  original
##  3    0.118      0.882   good  original
##  4    0.102      0.898   good  original
##  5    0.991      0.00914 poor  original
##  6    0.633      0.367   good  original
##  7    0.770      0.230   good  original
##  8    0.00842    0.992   good  original
##  9    0.995      0.00458 poor  original
## 10    0.765      0.235   poor  original
## # … with 2,010 more rows
```
…
