dplyr 0.8.0 release candidate
…
As opposed to what is described above, feedback from this post led us
to change the default value of .preserve to FALSE, and update the
algorithm to limit the cost of preserving.

Note however, that even .preserve = FALSE respects the factors that are used as
grouping variables, in particular filter( , .preserve = FALSE) is not a way to
discard empty groups. The
forcats 📦 may help:

iris %>% 
  group_by(Species) %>% 
  filter(stringr::str_detect(Species, "^v")) %>% 
  ungroup() %>% 
  group_by(Species = forcats::fct_drop(Species))
#> # A tibble: 100 x 5
#> # Groups:   Species [2]
#>    Sepal.Length Sepal.Width Petal.Length Petal.Width Species   
#>           <dbl>       <dbl>        <dbl>       <dbl> <fct>     
#>  1          7           3.2          4.7         1.4 versicolor
#>  2          6.4         3.2          4.5         1.5 versicolor
#>  3          6.9         3.1          4.9         1.5 versicolor
#>  4          5.5         2.3          4           1.3 versicolor
#>  5          6.5         2.8          4.6         1.5 versicolor
#>  6          5.7         2.8          4.5         1.3 versicolor
#>  7          6.3         3.3          4.7         1.6 versicolor
#>  8          4.9         2.4          3.3         1   versicolor
#>  9          6.6         2.9          4.6         1.3 versicolor
#> 10          5.2         2.7          3.9         1.4 versicolor
#> # … with 90 more rows

Furthermore, the group_trim() function has been added. group_trim()
recalculates the grouping metadata after dropping unused levels for
all grouping variables that are factors.

iris %>% 
  group_by(Species) %>% 
  filter(stringr::str_detect(Species, "^v")) %>% 
  group_trim()
#> # A tibble: 100 x 5
#> # Groups:   Species [2]
#>    Sepal.Length Sepal.Width Petal.Length Petal.Width Species   
#>           <dbl>       <dbl>        <dbl>       <dbl> <fct>     
#>  1          7           3.2          4.7         1.4 versicolor
#>  2          6.4         3.2          4.5         1.5 versicolor
#>  3          6.9         3.1          4.9         1.5 versicolor
#>  4          5.5         2.3          4           1.3 versicolor
#>  5          6.5         2.8          4.6         1.5 versicolor
#>  6          5.7         2.8          4.5         1.3 versicolor
#>  7          6.3         3.3          4.7         1.6 versicolor
#>  8          4.9         2.4          3.3         1   versicolor
#>  9          6.6         2.9          4.6         1.3 versicolor
#> 10          5.2         2.7          3.9         1.4 versicolor
#> # … with 90 more rows
…
data %>% 
  group_nest()
#> # A tibble: 3 x 2
#>   Species    data             
#>   <fct>      <list>           
#> 1 setosa     <tibble [22 × 4]>
#> 2 versicolor <tibble [24 × 4]>
#> 3 virginica  <tibble [22 × 4]>
data %>% 
  group_split()
#> [[1]]
#> # A tibble: 22 x 5
#>    Sepal.Length Sepal.Width Petal.Length Petal.Width Species
#>           <dbl>       <dbl>        <dbl>       <dbl> <fct>  
#>  1          5.1         3.5          1.4         0.2 setosa 
#>  2          5.4         3.9          1.7         0.4 setosa 
#>  3          5.4         3.7          1.5         0.2 setosa 
#>  4          5.8         4            1.2         0.2 setosa 
#>  5          5.7         4.4          1.5         0.4 setosa 
#>  6          5.4         3.9          1.3         0.4 setosa 
#>  7          5.1         3.5          1.4         0.3 setosa 
#>  8          5.7         3.8          1.7         0.3 setosa 
#>  9          5.1         3.8          1.5         0.3 setosa 
#> 10          5.4         3.4          1.7         0.2 setosa 
#> # … with 12 more rows
#> 
#> [[2]]
#> # A tibble: 24 x 5
#>    Sepal.Length Sepal.Width Petal.Length Petal.Width Species   
#>           <dbl>       <dbl>        <dbl>       <dbl> <fct>     
#>  1          7           3.2          4.7         1.4 versicolor
#>  2          6.4         3.2          4.5         1.5 versicolor
#>  3          6.9         3.1          4.9         1.5 versicolor
#>  4          6.5         2.8          4.6         1.5 versicolor
#>  5          6.3         3.3          4.7         1.6 versicolor
#>  6          6.6         2.9          4.6         1.3 versicolor
#>  7          6           2.2          4           1   versicolor
#>  8          6.1         2.9          4.7         1.4 versicolor
#>  9          6.7         3.1          4.4         1.4 versicolor
#> 10          6.2         2.2          4.5         1.5 versicolor
#> # … with 14 more rows
#> 
#> [[3]]
#> # A tibble: 22 x 5
#>    Sepal.Length Sepal.Width Petal.Length Petal.Width Species  
#>           <dbl>       <dbl>        <dbl>       <dbl> <fct>    
#>  1          7.1         3            5.9         2.1 virginica
#>  2          7.6         3            6.6         2.1 virginica
#>  3          7.3         2.9          6.3         1.8 virginica
#>  4          6.7         2.5          5.8         1.8 virginica
#>  5          7.2         3.6          6.1         2.5 virginica
#>  6          6.8         3            5.5         2.1 virginica
#>  7          7.7         3.8          6.7         2.2 virginica
#>  8          7.7         2.6          6.9         2.3 virginica
#>  9          6.9         3.2          5.7         2.3 virginica
#> 10          7.7         2.8          6.7         2   virginica
#> # … with 12 more rows
…
iris %>% 
  group_nest(Species)
#> # A tibble: 3 x 2
#>   Species    data             
#>   <fct>      <list>           
#> 1 setosa     <tibble [50 × 4]>
#> 2 versicolor <tibble [50 × 4]>
#> 3 virginica  <tibble [50 × 4]>

iris %>% 
  group_split(Species)
#> [[1]]
#> # A tibble: 50 x 5
#>    Sepal.Length Sepal.Width Petal.Length Petal.Width Species
#>           <dbl>       <dbl>        <dbl>       <dbl> <fct>  
#>  1          5.1         3.5          1.4         0.2 setosa 
#>  2          4.9         3            1.4         0.2 setosa 
#>  3          4.7         3.2          1.3         0.2 setosa 
#>  4          4.6         3.1          1.5         0.2 setosa 
#>  5          5           3.6          1.4         0.2 setosa 
#>  6          5.4         3.9          1.7         0.4 setosa 
#>  7          4.6         3.4          1.4         0.3 setosa 
#>  8          5           3.4          1.5         0.2 setosa 
#>  9          4.4         2.9          1.4         0.2 setosa 
#> 10          4.9         3.1          1.5         0.1 setosa 
#> # … with 40 more rows
#> 
#> [[2]]
#> # A tibble: 50 x 5
#>    Sepal.Length Sepal.Width Petal.Length Petal.Width Species   
#>           <dbl>       <dbl>        <dbl>       <dbl> <fct>     
#>  1          7           3.2          4.7         1.4 versicolor
#>  2          6.4         3.2          4.5         1.5 versicolor
#>  3          6.9         3.1          4.9         1.5 versicolor
#>  4          5.5         2.3          4           1.3 versicolor
#>  5          6.5         2.8          4.6         1.5 versicolor
#>  6          5.7         2.8          4.5         1.3 versicolor
#>  7          6.3         3.3          4.7         1.6 versicolor
#>  8          4.9         2.4          3.3         1   versicolor
#>  9          6.6         2.9          4.6         1.3 versicolor
#> 10          5.2         2.7          3.9         1.4 versicolor
#> # … with 40 more rows
#> 
#> [[3]]
#> # A tibble: 50 x 5
#>    Sepal.Length Sepal.Width Petal.Length Petal.Width Species  
#>           <dbl>       <dbl>        <dbl>       <dbl> <fct>    
#>  1          6.3         3.3          6           2.5 virginica
#>  2          5.8         2.7          5.1         1.9 virginica
#>  3          7.1         3            5.9         2.1 virginica
#>  4          6.3         2.9          5.6         1.8 virginica
#>  5          6.5         3            5.8         2.2 virginica
#>  6          7.6         3            6.6         2.1 virginica
#>  7          4.9         2.5          4.5         1.7 virginica
#>  8          7.3         2.9          6.3         1.8 virginica
#>  9          6.7         2.5          5.8         1.8 virginica
#> 10          7.2         3.6          6.1         2.5 virginica
#> # … with 40 more rows
…
The scoped (or colwise) verbs are the set of verbs with _at, _if and _all suffixes.
These verbs apply a certain behaviour (for instance, a mutating or summarising operation) to a given
selection of columns. This release of dplyr improves the consistency of the syntax and the behaviour with grouped tibbles.
A purrr-like syntax for passing functions

In dplyr 0.8.0, we have implemented support for functions and purrr-style lambda functions:

iris <- as_tibble(iris) # For concise print method

mutate_if(iris, is.numeric, ~ . - mean(.))
#> # A tibble: 150 x 5
#>    Sepal.Length Sepal.Width Petal.Length Petal.Width Species
#>           <dbl>       <dbl>        <dbl>       <dbl> <fct>  
#>  1       -0.743      0.443         -2.36      -0.999 setosa 
#>  2       -0.943     -0.0573        -2.36      -0.999 setosa 
#>  3       -1.14       0.143         -2.46      -0.999 setosa 
#>  4       -1.24       0.0427        -2.26      -0.999 setosa 
#>  5       -0.843      0.543         -2.36      -0.999 setosa 
#>  6       -0.443      0.843         -2.06      -0.799 setosa 
#>  7       -1.24       0.343         -2.36      -0.899 setosa 
#>  8       -0.843      0.343         -2.26      -0.999 setosa 
#>  9       -1.44      -0.157         -2.36      -0.999 setosa 
#> 10       -0.943      0.0427        -2.26      -1.10  setosa 
#> # … with 140 more rows

And lists of functions and purrr-style lambda functions:

fns <- list(
  centered = mean,                # Function object
  scaled = ~ . - mean(.) / sd(.)  # Purrr-style lambda
)
mutate_if(iris, is.numeric, fns)
#> # A tibble: 150 x 13
#>    Sepal.Length Sepal.Width Petal.Length Petal.Width Species
#>           <dbl>       <dbl>        <dbl>       <dbl> <fct>  
#>  1          5.1         3.5          1.4         0.2 setosa 
#>  2          4.9         3            1.4         0.2 setosa 
#>  3          4.7         3.2          1.3         0.2 setosa 
#>  4          4.6         3.1          1.5         0.2 setosa 
#>  5          5           3.6          1.4         0.2 setosa 
#>  6          5.4         3.9          1.7         0.4 setosa 
#>  7          4.6         3.4          1.4         0.3 setosa 
#>  8          5           3.4          1.5         0.2 setosa 
#>  9          4.4         2.9          1.4         0.2 setosa 
#> 10          4.9         3.1          1.5         0.1 setosa 
#> # … with 140 more rows, and 8 more variables: Sepal.Length_centered <dbl>,
#> #   Sepal.Width_centered <dbl>, Petal.Length_centered <dbl>,
#> #   Petal.Width_centered <dbl>, Sepal.Length_scaled <dbl>,
#> #   Sepal.Width_scaled <dbl>, Petal.Length_scaled <dbl>,
#> #   Petal.Width_scaled <dbl>
…
In order to make it easier to explicitly remove the grouping columns from an _at selection, we have introduced a
new selection helper
group_cols(). Just like
last_col() matches the last column of a tibble,
group_cols() matches all grouping columns:

mtcars %>%
  group_by(cyl) %>%
  select(group_cols())
#> # A tibble: 32 x 1
#> # Groups:   cyl [3]
#>      cyl
#>  * <dbl>
#>  1     6
#>  2     6
#>  3     4
#>  4     6
#>  5     8
#>  6     6
#>  7     8
#>  8     4
#>  9     4
#> 10     6
#> # … with 22 more rows
…
It makes it easy to remove explicitly the grouping variables:

mtcars %>%
  group_by(cyl) %>%
  mutate_at(
    vars(starts_with("c"), -group_cols()),
    ~ . - mean(.)
  )
#> # A tibble: 32 x 11
#> # Groups:   cyl [3]
#>      mpg   cyl  disp    hp  drat    wt  qsec    vs    am  gear   carb
#>    <dbl> <dbl> <dbl> <dbl> <dbl> <dbl> <dbl> <dbl> <dbl> <dbl>  <dbl>
#>  1  21       6  160    110  3.9   2.62  16.5     0     1     4  0.571
#>  2  21       6  160    110  3.9   2.88  17.0     0     1     4  0.571
#>  3  22.8     4  108     93  3.85  2.32  18.6     1     1     4 -0.545
#>  4  21.4     6  258    110  3.08  3.22  19.4     1     0     3 -2.43 
#>  5  18.7     8  360    175  3.15  3.44  17.0     0     0     3 -1.5  
#>  6  18.1     6  225    105  2.76  3.46  20.2     1     0     3 -2.43 
#>  7  14.3     8  360    245  3.21  3.57  15.8     0     0     3  0.5  
#>  8  24.4     4  147.    62  3.69  3.19  20       1     0     4  0.455
#>  9  22.8     4  141.    95  3.92  3.15  22.9     1     0     4  0.455
#> 10  19.2     6  168.   123  3.92  3.44  18.3     1     0     4  0.571
#> # … with 22 more rows
…
