Q2 2023 tidymodels digest
…
We’ll highlight a few especially notable changes below: a new package with data for modeling, nearest neighbor distance matching cross-validation for spatial data, and a website refresh.
First, loading the collection of packages:

library(tidymodels)

modeldatatoo

Many of the datasets used in tidymodels examples are available in the modeldata package. The new modeldatatoo package now extends the collection by several bigger datasets. To allow for the bigger size, the package does not contain those datasets directly but rather provides functions to access them, prefixed with data_. For example:

library(modeldatatoo)

data_animals()
#> # A tibble: 610 × 48
#>    text    colour lifespan weight kingdom class phylum diet  conservation_status
#>    <chr>   <chr>  <chr>    <chr>  <chr>   <chr> <chr>  <chr> <chr>              
#>  1 "Aardv… Brown… 23 years 60kg … Animal… Mamm… Chord… Omni… Least Concern      
#>  2 "Abyss… Fawn,… NA       NA     NA      NA    NA     NA    NA                 
#>  3 "Adeli… Black… 10 - 20… 3kg -… Animal… Aves  Chord… Carn… Least Concern      
#>  4 "Affen… Black… NA       NA     NA      NA    NA     NA    NA                 
#>  5 "Afgha… Black… NA       NA     NA      NA    NA     NA    NA                 
#>  6 "Afric… Grey,… 60 - 70… 3,600… Animal… Mamm… Chord… Herb… Threatened         
#>  7 "Afric… Black… 15 - 20… 1.4kg… Animal… Mamm… Chord… Omni… Least Concern      
#>  8 "Afric… Brown… 8 - 15 … 25g -… Animal… Amph… Chord… Carn… Least Concern      
#>  9 "Afric… Grey,… 60 - 70… 900kg… Animal… Mamm… Chord… Herb… Endangered         
#> 10 "Afric… Black… 15 - 20… 1.4kg… Animal… Mamm… Chord… Omni… Least Concern      
#> # ℹ 600 more rows
#> # ℹ 39 more variables: order <chr>, scientific_name <chr>, skin_type <chr>,
#> #   habitat <chr>, predators <chr>, family <chr>, lifestyle <chr>,
#> #   average_litter_size <chr>, genus <chr>, top_speed <chr>,
#> #   favourite_food <chr>, main_prey <chr>, type <chr>, common_name <chr>,
#> #   group <chr>, size <chr>, distinctive_features <chr>, size_l <chr>,
#> #   origin <chr>, special_features <chr>, location <chr>, …
…
ames_sf <- sf::st_as_sf(ames, coords = c("Longitude", "Latitude"), crs = 4326)

Let’s assume that we are building a model to predict observations similar to this subset of the data:

ames_prediction_sites <- ames_sf[2001:2100, ]

Let’s create NNDM cross-validation folds from a reduced training set as an example, just to keep things light.

ames_folds <- spatial_nndm_cv(ames_sf[1:100, ], ames_prediction_sites)

The resulting rset contains 100 splits of the data, always keeping 1 of the 100 data points in the assessment set.

ames_folds
#> # A tibble: 100 × 2
#>    splits         id     
#>    <list>         <chr>  
#>  1 <split [50/1]> Fold001
#>  2 <split [83/1]> Fold002
#>  3 <split [50/1]> Fold003
#>  4 <split [50/1]> Fold004
#>  5 <split [50/1]> Fold005
#>  6 <split [50/1]> Fold006
#>  7 <split [50/1]> Fold007
#>  8 <split [76/1]> Fold008
#>  9 <split [86/1]> Fold009
#> 10 <split [88/1]> Fold010
#> # ℹ 90 more rows
…
