It depends - A dialog about dependencies
…
dep_usage_proj() and dep_usage_pkg() return a tibble of
every function call in your project or package. This information can then be
used to do things like
show which packages you are using the most in a project

library(tidyverse)
itdepends::dep_usage_pkg("ggplot2") %>%
  count(pkg, sort = TRUE)
#> # A tibble: 23 x 2
#>    pkg           n
#>    <chr>     <int>
#>  1 base      10333
#>  2 ggplot2    1225
#>  3 grid        313
#>  4 scales      118
#>  5 gtable       78
#>  6 rlang        68
#>  7 plyr         53
#>  8 stats        44
#>  9 utils        24
#> 10 grDevices    20
#> # … with 13 more rows
…
