dplyr 1.0.4: if_any() and if_all()
…
library(dplyr, warn.conflicts = FALSE)
library(palmerpenguins)

big <- function(x) {
  x > mean(x, na.rm = TRUE)
}

# keep rows if all the selected columns are "big"
penguins %>% 
  filter(if_all(contains("bill"), big))
#> # A tibble: 61 x 8
#>    species island bill_length_mm bill_depth_mm flipper_length_… body_mass_g
#>    <fct>   <fct>           <dbl>         <dbl>            <int>       <int>
#>  1 Adelie  Torge…           46            21.5              194        4200
#>  2 Adelie  Dream            44.1          19.7              196        4400
#>  3 Adelie  Torge…           45.8          18.9              197        4150
#>  4 Adelie  Biscoe           45.6          20.3              191        4600
#>  5 Adelie  Torge…           44.1          18                210        4000
#>  6 Gentoo  Biscoe           44.4          17.3              219        5250
#>  7 Gentoo  Biscoe           50.8          17.3              228        5600
#>  8 Chinst… Dream            46.5          17.9              192        3500
#>  9 Chinst… Dream            50            19.5              196        3900
#> 10 Chinst… Dream            51.3          19.2              193        3650
#> # … with 51 more rows, and 2 more variables: sex <fct>, year <int>

# keep rows where at least one of the columns is "big"
penguins %>% 
  filter(if_any(contains("bill"), big))
#> # A tibble: 296 x 8
#>    species island bill_length_mm bill_depth_mm flipper_length_… body_mass_g
#>    <fct>   <fct>           <dbl>         <dbl>            <int>       <int>
#>  1 Adelie  Torge…           39.1          18.7              181        3750
#>  2 Adelie  Torge…           39.5          17.4              186        3800
#>  3 Adelie  Torge…           40.3          18                195        3250
#>  4 Adelie  Torge…           36.7          19.3              193        3450
#>  5 Adelie  Torge…           39.3          20.6              190        3650
#>  6 Adelie  Torge…           38.9          17.8              181        3625
#>  7 Adelie  Torge…           39.2          19.6              195        4675
#>  8 Adelie  Torge…           34.1          18.1              193        3475
#>  9 Adelie  Torge…           42            20.2              190        4250
#> 10 Adelie  Torge…           37.8          17.3              180        3700
#> # … with 286 more rows, and 2 more variables: sex <fct>, year <int>
…
