rsample 1.1.0
…
# Data splitting to create an initial training/testing split:
group_initial_split(ames, Neighborhood)
#> <Training/Testing/Total>
#> <2162/768/2930>

These functions all target assigning a certain proportion of your data to the assessment fold. Hitting that target can be tricky when your groups aren’t all the same size, however. To work around this, these new functions create a list of all the groups in your data, randomly reshuffle it, and then select the first n groups in the list that results in splitting the data as close to that proportion as possible. The net effect of this on users is that your analysis and assessment folds won’t always be precisely the size you’re targeting (particularly if you have a few large groups), but all data in a single group will always be entirely assigned to the same set and the splits will be entirely randomly created.
The other big change to grouped resampling comes as a new argument to
group_vfold_cv(). By default,
group_vfold_cv() assigns roughly the same number of groups to each of your folds, so you wind up with the same number of patients, or neighborhoods, or whatever else you’re grouping by in each assessment set. The new balance argument lets you instead assign roughly the same number of rows to each fold instead, if you set balance = observations:

group_vfold_cv(ames, Neighborhood, balance = "observations")
#> # Group 28-fold cross-validation 
#> # A tibble: 28 × 2
#>    splits             id        
#>    <list>             <chr>     
#>  1 <split [2928/2]>   Resample01
#>  2 <split [2922/8]>   Resample02
#>  3 <split [2907/23]>  Resample03
#>  4 <split [2736/194]> Resample04
#>  5 <split [2886/44]>  Resample05
#>  6 <split [2893/37]>  Resample06
#>  7 <split [2929/1]>   Resample07
#>  8 <split [2663/267]> Resample08
#>  9 <split [2805/125]> Resample09
#> 10 <split [2837/93]>  Resample10
#> # … with 18 more rows
#> # ℹ Use `print(n = ...)` to see more rows
…
