…
Finally and most importantly, if the variables evaluated to the column vectors, we would have no information about their names or positions, which we need to reconstitute the data frame.

Since the variables represent positions, expressions such as select(sqrt(hair_color):mass^2) are valid but won’t do what you might think at first. In the selection context, that expression translates to 2:9 because hair_color and mass are the fourth and third column of the data frame.

Safety in selection functions

Given the special semantics of selection functions, we had more freedom to solve the hierarchical ambiguity of quoting functions. Indeed, apart from :, c() or -, there rarely is any need for referring to column positions in helpers like starts_with() or contains(). For this reason, dplyr 0.7.0 introduced the notion of context expressions. Data frame columns are no longer in scope in these calls in order to solve the hierarchical ambiguity. This has the downside that context expressions in selection functions behave a bit differently from the rest of the tidyverse, but we gain safety in exchange.

Given these special semantics, it seemed to make sense to give data expressions the opposite behaviour and only allow references to the data. This would solve the ambiguity in the opposite direction. As explained above, this broke too much code. We had to change it back and the issue of hierarchical ambiguity along with it.

Luckily tidyselect 0.2.0 also introduces a few features that help writing safer code for data expressions. First, the support for strings and character vectors has been improved. All data expressions fully support strings. It is now valid to supply strings to - and ::

starwars %>% gather("key", "value", "name" : "films")
#> # A tibble: 957 x 4
#>     vehicles starships   key     value
#>       <list>    <list> <chr>    <list>
#>  1 <chr [2]> <chr [2]>  name <chr [1]>
#>  2 <chr [0]> <chr [0]>  name <chr [1]>
#>  3 <chr [0]> <chr [0]>  name <chr [1]>
#>  4 <chr [0]> <chr [1]>  name <chr [1]>
#>  5 <chr [1]> <chr [0]>  name <chr [1]>
#>  6 <chr [0]> <chr [0]>  name <chr [1]>
#>  7 <chr [0]> <chr [0]>  name <chr [1]>
#>  8 <chr [0]> <chr [0]>  name <chr [1]>
#>  9 <chr [0]> <chr [1]>  name <chr [1]>
#> 10 <chr [1]> <chr [5]>  name <chr [1]>
#> # ... with 947 more rows
starwars %>% gather("key", "value", -"height")
#> # A tibble: 1,044 x 3
#>    height   key     value
#>     <int> <chr>    <list>
#>  1    172  name <chr [1]>
#>  2    167  name <chr [1]>
#>  3     96  name <chr [1]>
#>  4    202  name <chr [1]>
#>  5    150  name <chr [1]>
#>  6    178  name <chr [1]>
#>  7    165  name <chr [1]>
#>  8     97  name <chr [1]>
#>  9    183  name <chr [1]>
#> 10    182  name <chr [1]>
#> # ... with 1,034 more rows

Note that this only applies to c(), - or : because it would not make sense to write seq("name", "mass"). Also, it only makes sense to support strings in this way because of the special nature of selection functions. This wouldn’t work with mutate() or lm() since they wouldn’t be able to differentiate between a column name or an actual column (by recycling the string to column length if the data frame has more than one row).

The purpose of supporting strings in selection function is to make it easier to unquote column names. Excluding columns with quasiquotation is now as simple as this:

x <- "height"
starwars %>% gather("key", "value", -(!! x))
#> # A tibble: 1,044 x 3
#>    height   key     value
#>     <int> <chr>    <list>
#>  1    172  name <chr [1]>
#>  2    167  name <chr [1]>
#>  3     96  name <chr [1]>
#>  4    202  name <chr [1]>
#>  5    150  name <chr [1]>
#>  6    178  name <chr [1]>
#>  7    165  name <chr [1]>
#>  8     97  name <chr [1]>
#>  9    183  name <chr [1]>
#> 10    182  name <chr [1]>
#> # ... with 1,034 more rows

The second feature introduced in tidyselect 0.2.0 is the last_col() helper. We noticed in bug reports that many people use variants of:

x <- starwars
x %>% gather("key", "value", 3 : ncol(x))
#> # A tibble: 957 x 4
#>                  name height   key     value
#>                 <chr>  <int> <chr>    <list>
#>  1     Luke Skywalker    172  mass <dbl [1]>
#>  2              C-3PO    167  mass <dbl [1]>
#>  3              R2-D2     96  mass <dbl [1]>
#>  4        Darth Vader    202  mass <dbl [1]>
#>  5        Leia Organa    150  mass <dbl [1]>
#>  6          Owen Lars    178  mass <dbl [1]>
#>  7 Beru Whitesun lars    165  mass <dbl [1]>
#>  8              R5-D4     97  mass <dbl [1]>
#>  9  Biggs Darklighter    183  mass <dbl [1]>
#> 10     Obi-Wan Kenobi    182  mass <dbl [1]>
#> # ... with 947 more rows

That is potentially unsafe in functions since the data frame might contain a column named x. You can now use last_col() instead:

# Importing last_col() because it's not exported in dplyr yet
last_col <- tidyselect::last_col

x %>% gather("key", "value", 3 : last_col())
#> # A tibble: 957 x 4
#>                  name height   key     value
#>                 <chr>  <int> <chr>    <list>
#>  1     Luke Skywalker    172  mass <dbl [1]>
#>  2              C-3PO    167  mass <dbl [1]>
#>  3              R2-D2     96  mass <dbl [1]>
#>  4        Darth Vader    202  mass <dbl [1]>
#>  5        Leia Organa    150  mass <dbl [1]>
#>  6          Owen Lars    178  mass <dbl [1]>
#>  7 Beru Whitesun lars    165  mass <dbl [1]>
#>  8              R5-D4     97  mass <dbl [1]>
#>  9  Biggs Darklighter    183  mass <dbl [1]>
#> 10     Obi-Wan Kenobi    182  mass <dbl [1]>
#> # ... with 947 more rows
