tidyclust is on CRAN
…
Extraction

Going back to the first model we fit, tidyclust provides three main tools for interfacing with a fitted cluster model:
extract cluster assignments
extract centroid locations
prediction with new data
Each of these tasks has a function associated with them. First, we have
extract_cluster_assignment(), which can be used on fitted tidyclust objects, alone or as a part of a workflow, and it returns the cluster assignment as a factor named .cluster in a tibble.

extract_cluster_assignment(kmeans_fit)
#> # A tibble: 2,930 × 1
#>    .cluster 
#>    <fct>    
#>  1 Cluster_1
#>  2 Cluster_1
#>  3 Cluster_1
#>  4 Cluster_1
#>  5 Cluster_2
#>  6 Cluster_2
#>  7 Cluster_2
#>  8 Cluster_2
#>  9 Cluster_2
#> 10 Cluster_2
#> # … with 2,920 more rows
…
