googlesheets4 0.2.0
…
Let’s say you’re staring at a Sheet1 in the browser and you want to read it into R. Copy the URL to your clipboard and paste it into a call to read_sheet() like this:

read_sheet("https://docs.google.com/spreadsheets/d/1U6Cf_qEOhiR9AZqTqS3mbMF3zt2db48ZP5v3rkrAEJY/edit#gid=780868077")
#> Reading from "gapminder"
#> Range "Africa"
#> # A tibble: 624 x 6
#>   country continent  year lifeExp      pop gdpPercap
#>   <chr>   <chr>     <dbl>   <dbl>    <dbl>     <dbl>
#> 1 Algeria Africa     1952    43.1  9279525     2449.
#> 2 Algeria Africa     1957    45.7 10270856     3014.
#> 3 Algeria Africa     1962    48.3 11000948     2551.
#> 4 Algeria Africa     1967    51.4 12760499     3247.
#> 5 Algeria Africa     1972    54.5 14760787     4183.
#> # … with 619 more rows
…
The above demonstrates that printing a Sheet ID (literally, an instance of sheets_id) reveals relevant metadata about the Sheet, such as its name and an overview of its worksheets and named ranges.
read_sheet() is happy to accept a Sheet ID, instead of a URL. Such a Sheet ID might be an instance of sheets_id, but you can also provide the ID as a string. Here we show piping a Sheet ID into read_sheet() and we start to demonstrate other features, e.g. the use of a qualified A1-style range.

gs4_example("gapminder") %>%
  read_sheet(range = "Asia!A:D")
#> Reading from "gapminder"
#> Range "'Asia'!A:D"
#> # A tibble: 396 x 4
#>   country     continent  year lifeExp
#>   <chr>       <chr>     <dbl>   <dbl>
#> 1 Afghanistan Asia       1952    28.8
#> 2 Afghanistan Asia       1957    30.3
#> 3 Afghanistan Asia       1962    32.0
#> 4 Afghanistan Asia       1967    34.0
#> 5 Afghanistan Asia       1972    36.1
#> # … with 391 more rows
…
read_sheet() also accepts a one-row dribble as input. Here I also show the use of range to target a named range and specify some of the column types:

deaths_dribble %>% 
  read_sheet(range = "arts_data", col_types = "??i?DD")
#> Reading from "deaths"
#> Range "arts_data"
#> # A tibble: 10 x 6
#>   Name          Profession   Age `Has kids` `Date of birth` `Date of death`
#>   <chr>         <chr>      <int> <lgl>      <date>          <date>         
#> 1 David Bowie   musician      69 TRUE       1947-01-08      2016-01-10     
#> 2 Carrie Fisher actor         60 TRUE       1956-10-21      2016-12-27     
#> 3 Chuck Berry   musician      90 TRUE       1926-10-18      2017-03-18     
#> 4 Bill Paxton   actor         61 TRUE       1955-05-17      2017-02-25     
#> 5 Prince        musician      57 TRUE       1958-06-07      2016-04-21     
#> # … with 5 more rows
…
read_sheet(ss)
#> Reading from "able-aardvark"
#> Range "flowers"
#> # A tibble: 6 x 5
#>   Sepal.Length Sepal.Width Petal.Length Petal.Width Species
#>          <dbl>       <dbl>        <dbl>       <dbl> <chr>  
#> 1          5.1         3.5          1.4         0.2 setosa 
#> 2          4.9         3            1.4         0.2 setosa 
#> 3          4.7         3.2          1.3         0.2 setosa 
#> 4          4.6         3.1          1.5         0.2 setosa 
#> 5          5           3.6          1.4         0.2 setosa 
#> # … with 1 more row
…
