Postprocessing is coming to tidymodels
…
data(deliveries)

# split into training and testing sets
set.seed(1)
delivery_split <- initial_split(deliveries)
delivery_train <- training(delivery_split)
delivery_test  <- testing(delivery_split)

# resample the training set using 10-fold cross-validation
set.seed(1)
delivery_folds <- vfold_cv(delivery_train)

# print out the training set
delivery_train
#> # A tibble: 7,509 × 31
#>    time_to_delivery  hour day   distance item_01 item_02 item_03 item_04 item_05
#>               <dbl> <dbl> <fct>    <dbl>   <int>   <int>   <int>   <int>   <int>
#>  1             21.2  16.1 Tue       3.02       0       0       0       0       0
#>  2             17.9  12.4 Sun       3.37       0       0       0       0       0
#>  3             22.4  14.2 Fri       2.59       0       0       0       0       0
#>  4             30.9  19.1 Sat       2.77       0       0       0       0       0
#>  5             30.1  16.5 Fri       2.05       0       0       0       1       0
#>  6             35.3  14.7 Sat       4.57       0       0       2       1       1
#>  7             13.1  11.5 Sat       2.09       0       0       0       0       0
#>  8             18.3  13.4 Tue       2.35       0       2       1       0       0
#>  9             25.2  20.5 Sat       2.43       0       0       0       1       0
#> 10             30.7  16.7 Fri       2.24       0       0       0       1       0
#> # ℹ 7,499 more rows
#> # ℹ 22 more variables: item_06 <int>, item_07 <int>, item_08 <int>,
#> #   item_09 <int>, item_10 <int>, item_11 <int>, item_12 <int>, item_13 <int>,
#> #   item_14 <int>, item_15 <int>, item_16 <int>, item_17 <int>, item_18 <int>,
#> #   item_19 <int>, item_20 <int>, item_21 <int>, item_22 <int>, item_23 <int>,
#> #   item_24 <int>, item_25 <int>, item_26 <int>, item_27 <int>
…
